%!PS-Adobe-2.0
%%Creator: Graphviz version 2.16.1 (Thu Dec 13 09:00:54 UTC 2007)
%%For: (hartmann) Prof. Dr. Alexander Hartmann
%%Title: test2
%%Pages: (atend)
%%BoundingBox: (atend)
%%EndComments
save
%%BeginProlog
/DotDict 200 dict def
DotDict begin

/setupLatin1 {
mark
/EncodingVector 256 array def
 EncodingVector 0

ISOLatin1Encoding 0 255 getinterval putinterval
EncodingVector 45 /hyphen put

% Set up ISO Latin 1 character encoding
/starnetISO {
        dup dup findfont dup length dict begin
        { 1 index /FID ne { def }{ pop pop } ifelse
        } forall
        /Encoding EncodingVector def
        currentdict end definefont
} def
/Times-Roman starnetISO def
/Times-Italic starnetISO def
/Times-Bold starnetISO def
/Times-BoldItalic starnetISO def
/Helvetica starnetISO def
/Helvetica-Oblique starnetISO def
/Helvetica-Bold starnetISO def
/Helvetica-BoldOblique starnetISO def
/Courier starnetISO def
/Courier-Oblique starnetISO def
/Courier-Bold starnetISO def
/Courier-BoldOblique starnetISO def
cleartomark
} bind def

%%BeginResource: procset graphviz 0 0
/coord-font-family /Times-Roman def
/default-font-family /Times-Roman def
/coordfont coord-font-family findfont 8 scalefont def

/InvScaleFactor 1.0 def
/set_scale {
       dup 1 exch div /InvScaleFactor exch def
       scale
} bind def

% styles
/solid { [] 0 setdash } bind def
/dashed { [9 InvScaleFactor mul dup ] 0 setdash } bind def
/dotted { [1 InvScaleFactor mul 6 InvScaleFactor mul] 0 setdash } bind def
/invis {/fill {newpath} def /stroke {newpath} def /show {pop newpath} def} bind def
/bold { 2 setlinewidth } bind def
/filled { } bind def
/unfilled { } bind def
/rounded { } bind def
/diagonals { } bind def

% hooks for setting color 
/nodecolor { sethsbcolor } bind def
/edgecolor { sethsbcolor } bind def
/graphcolor { sethsbcolor } bind def
/nopcolor {pop pop pop} bind def

/beginpage {	% i j npages
	/npages exch def
	/j exch def
	/i exch def
	/str 10 string def
	npages 1 gt {
		gsave
			coordfont setfont
			0 0 moveto
			(\() show i str cvs show (,) show j str cvs show (\)) show
		grestore
	} if
} bind def

/set_font {
	findfont exch
	scalefont setfont
} def

% draw text fitted to its expected width
/alignedtext {			% width text
	/text exch def
	/width exch def
	gsave
		width 0 gt {
			[] 0 setdash
			text stringwidth pop width exch sub text length div 0 text ashow
		} if
	grestore
} def

/boxprim {				% xcorner ycorner xsize ysize
		4 2 roll
		moveto
		2 copy
		exch 0 rlineto
		0 exch rlineto
		pop neg 0 rlineto
		closepath
} bind def

/ellipse_path {
	/ry exch def
	/rx exch def
	/y exch def
	/x exch def
	matrix currentmatrix
	newpath
	x y translate
	rx ry scale
	0 0 1 0 360 arc
	setmatrix
} bind def

/endpage { showpage } bind def
/showpage { } def

/layercolorseq
	[	% layer color sequence - darkest to lightest
		[0 0 0]
		[.2 .8 .8]
		[.4 .8 .8]
		[.6 .8 .8]
		[.8 .8 .8]
	]
def

/layerlen layercolorseq length def

/setlayer {/maxlayer exch def /curlayer exch def
	layercolorseq curlayer 1 sub layerlen mod get
	aload pop sethsbcolor
	/nodecolor {nopcolor} def
	/edgecolor {nopcolor} def
	/graphcolor {nopcolor} def
} bind def

/onlayer { curlayer ne {invis} if } def

/onlayers {
	/myupper exch def
	/mylower exch def
	curlayer mylower lt
	curlayer myupper gt
	or
	{invis} if
} def

/curlayer 0 def

%%EndResource
%%EndProlog
%%BeginSetup
14 default-font-family set_font
1 setmiterlimit
% /arrowlength 10 def
% /arrowwidth 5 def

% make sure pdfmark is harmless for PS-interpreters other than Distiller
/pdfmark where {pop} {userdict /pdfmark /cleartomark load put} ifelse
% make '<<' and '>>' safe on PS Level 1 devices
/languagelevel where {pop languagelevel}{1} ifelse
2 lt {
    userdict (<<) cvn ([) cvn load put
    userdict (>>) cvn ([) cvn load put
} if

%%EndSetup
setupLatin1
%%Page: 1 1
%%PageBoundingBox: 36 36 233 424
%%PageOrientation: Portrait
0 0 1 beginpage
gsave
36 36 197 388 boxprim clip newpath
1 1 set_scale 0 rotate 40 40 translate
% 0
gsave
2 setlinewidth
bold
0.000 0.000 0.000 nodecolor
newpath 76 306 moveto
22 306 lineto
22 270 lineto
76 270 lineto
closepath stroke
0.000 0.000 0.000 nodecolor
14.00 /Times-Roman set_font
34.5 283.4 moveto 29 (Milk) alignedtext
grestore
% Butter
gsave
1 setlinewidth
0.667 1.000 1.000 nodecolor
newpath 78.8998 182.249 moveto
40 232 lineto
1.10025 182.249 lineto
1.13655 101.751 lineto
78.8634 101.751 lineto
closepath stroke
0.000 0.000 0.000 nodecolor
14.00 /Times-Roman set_font
21.5 155.4 moveto 37 (Butter) alignedtext
grestore
% 0--Butter
gsave
1 setlinewidth
0.000 0.000 0.000 edgecolor
newpath 48 270 moveto
47 258 46 242 45 226 curveto
stroke
grestore
% Sandwich
gsave
1 setlinewidth
0.000 0.000 0.000 nodecolor
newpath 142 36 moveto
72 36 lineto
72 1.06581e-14 lineto
142 0 lineto
closepath stroke
0.000 0.000 0.000 nodecolor
14.00 /Times-Roman set_font
79.5 13.4 moveto 55 (Sandwich) alignedtext
grestore
% Butter--Sandwich
gsave
1 setlinewidth
dashed
0.000 0.000 0.000 edgecolor
newpath 68 101 moveto
79 78 91 53 98 36 curveto
stroke
grestore
% Cake
gsave
1 setlinewidth
0.000 0.000 0.000 nodecolor
newpath 54 36 moveto
1.42109e-14 36 lineto
3.55271e-15 1.06581e-14 lineto
54 0 lineto
closepath stroke
0.000 0.000 0.000 nodecolor
14.00 /Times-Roman set_font
12.5 13.4 moveto 29 (Cake) alignedtext
grestore
% Butter--Cake
gsave
1 setlinewidth
0.000 0.000 0.000 edgecolor
newpath 31 101 moveto
30 91 29 80 28 70 curveto
28 59 27 46 27 36 curveto
stroke
0.000 0.000 0.000 edgecolor
14.00 /Times-Roman set_font
28 57.4 moveto 40 (bakery) alignedtext
grestore
% Cheese
gsave
1 setlinewidth
0.000 0.000 0.000 nodecolor
newpath 118 380 moveto
54 380 lineto
54 344 lineto
118 344 lineto
closepath stroke
0.000 0.000 0.000 nodecolor
14.00 /Palatino-Italic set_font
62 357.4 moveto 48 (Cheese) alignedtext
grestore
% Cheese--0
gsave
1 setlinewidth
0.000 0.000 0.000 edgecolor
newpath 77 344 moveto
71 332 64 318 58 306 curveto
stroke
grestore
% Cheese--Sandwich
gsave
1 setlinewidth
0.000 0.000 0.000 edgecolor
newpath 87 344 moveto
90 285 102 96 106 36 curveto
stroke
grestore
% Wheat
gsave
1 setlinewidth
0.000 0.000 0.000 nodecolor
newpath 189 178 moveto
135 178 lineto
135 142 lineto
189 142 lineto
closepath stroke
0.000 0.000 0.000 nodecolor
14.00 /Times-Roman set_font
143 155.4 moveto 38 (Wheat) alignedtext
grestore
% Wheat--Sandwich
gsave
1 setlinewidth
0.000 0.000 0.000 edgecolor
newpath 155 142 moveto
147 121 133 85 121 54 curveto
119 48 116 42 114 36 curveto
stroke
grestore
endpage
showpage
grestore
%%PageTrailer
%%EndPage: 1
%%Trailer
%%Pages: 1
%%BoundingBox: 36 36 233 424
end
restore
%%EOF
