%!PS-Adobe-3.0 EPSF-3.0
%%BoundingBox: (atend)
%%LanguageLevel: 2
%%Creator: Grace-5.1.21
%%CreationDate: Mon Oct 20 14:48:19 2008
%%DocumentData: Clean8Bit
%%Orientation: Portrait
%%Title: FTplot.agr
%%For: hartmann
%%DocumentNeededResources: (atend)
%%EndComments
%%BeginProlog
/m {moveto} def
/l {lineto} def
/s {stroke} def
/n {newpath} def
/c {closepath} def
/RL {rlineto} def
/SLW {setlinewidth} def
/GS {gsave} def
/GR {grestore} def
/SC {setcolor} def
/SGRY {setgray} def
/SRGB {setrgbcolor} def
/SD {setdash} def
/SLC {setlinecap} def
/SLJ {setlinejoin} def
/SCS {setcolorspace} def
/FFSF {findfont setfont} def
/CC {concat} def
/PXL {n m 0 0 RL s} def
/Color0 {1.0000 1.0000 1.0000} def
/Color1 {0.0000 0.0000 0.0000} def
/Color2 {1.0000 0.0000 0.0000} def
/Color3 {0.0000 1.0000 0.0000} def
/Color4 {0.0000 0.0000 1.0000} def
/Color5 {1.0000 1.0000 0.0000} def
/Color6 {0.7373 0.5608 0.5608} def
/Color7 {0.8627 0.8627 0.8627} def
/Color8 {0.5804 0.0000 0.8275} def
/Color9 {0.0000 1.0000 1.0000} def
/Color10 {1.0000 0.0000 1.0000} def
/Color11 {1.0000 0.6471 0.0000} def
/Color12 {0.4471 0.1294 0.7373} def
/Color13 {0.4039 0.0275 0.2824} def
/Color14 {0.2510 0.8784 0.8157} def
/Color15 {0.0000 0.5451 0.0000} def
/Color16 {0.7529 0.7529 0.7529} def
/Color17 {0.5059 0.5059 0.5059} def
/Color18 {0.2588 0.2588 0.2588} def
/PTRN {
 /pat_bits exch def 
 <<
  /PaintType 2
  /PatternType 1 /TilingType 1
  /BBox[0 0 16 16]
  /XStep 16 /YStep 16
  /PaintProc {
   pop
   16 16 true [-1 0 0 -1 16 16] pat_bits imagemask
  }
 >>
 [0.0016 0 0 0.0016 0 0]
 makepattern
} def
/Pattern0 {<0000000000000000000000000000000000000000000000000000000000000000> PTRN} bind def
/Pattern1 {<ffffffffffffffffffffffffffffffffffffffffffffffffffffffffffffffff> PTRN} bind def
/Pattern2 {<eeeeffffbbbbffffeeeeffffbbbbffffeeeeffffbbbbffffeeeeffffbbbbffff> PTRN} bind def
/Pattern3 {<eeeebbbbeeeebbbbeeeebbbbeeeebbbbeeeebbbbeeeebbbbeeeebbbbeeeebbbb> PTRN} bind def
/Pattern4 {<5555aaaa5555aaaa5555aaaa5555aaaa5555aaaa5555aaaa5555aaaa5555aaaa> PTRN} bind def
/Pattern5 {<1111444411114444111144441111444411114444111144441111444411114444> PTRN} bind def
/Pattern6 {<1111000044440000111100004444000011110000444400001111000044440000> PTRN} bind def
/Pattern7 {<1010000000000000010100000000000010100000000000000101000000000000> PTRN} bind def
/Pattern8 {<0000000000000000000000000000000000000000000000000000000000000000> PTRN} bind def
/Pattern9 {<1e1e0f0f8787c3c3e1e1f0f078783c3c1e1e0f0f8787c3c3e1e1f0f078783c3c> PTRN} bind def
/Pattern10 {<7878f0f0e1e1c3c387870f0f1e1e3c3c7878f0f0e1e1c3c387870f0f1e1e3c3c> PTRN} bind def
/Pattern11 {<3333333333333333333333333333333333333333333333333333333333333333> PTRN} bind def
/Pattern12 {<ffffffff00000000ffffffff00000000ffffffff00000000ffffffff00000000> PTRN} bind def
/Pattern13 {<8181424224241818181824244242818181814242242418181818242442428181> PTRN} bind def
/Pattern14 {<8080404020201010080804040202010180804040202010100808040402020101> PTRN} bind def
/Pattern15 {<0101020204040808101020204040808001010202040408081010202040408080> PTRN} bind def
/Pattern16 {<2222222222222222222222222222222222222222222222222222222222222222> PTRN} bind def
/Pattern17 {<0000ffff000000000000ffff000000000000ffff000000000000ffff00000000> PTRN} bind def
/Pattern18 {<2222ffff222222222222ffff222222222222ffff222222222222ffff22222222> PTRN} bind def
/Pattern19 {<ffffffff33333333ffffffff33333333ffffffff33333333ffffffff33333333> PTRN} bind def
/Pattern20 {<0f0f0f0f0f0f0f0ff0f0f0f0f0f0f0f00f0f0f0f0f0f0f0ff0f0f0f0f0f0f0f0> PTRN} bind def
/Pattern21 {<ff00ff00ff00ff00ff00ff00ff00ff0000ff00ff00ff00ff00ff00ff00ff00ff> PTRN} bind def
/Pattern22 {<8001800180018001800180018001ffffffff8001800180018001800180018001> PTRN} bind def
/Pattern23 {<c003c003c003c003c003c003ffffffffffffffffc003c003c003c003c003c003> PTRN} bind def
/Pattern24 {<040404040404ffff404040404040ffff040404040404ffff404040404040ffff> PTRN} bind def
/Pattern25 {<180018001800180018001800ffffffff001800180018001800180018ffffffff> PTRN} bind def
/Pattern26 {<1111b8b87c7c3a3a1111a3a3c7c78b8b1111b8b87c7c3a3a1111a3a3c7c78b8b> PTRN} bind def
/Pattern27 {<101010102828c7c70101010182827c7c101010102828c7c70101010182827c7c> PTRN} bind def
/Pattern28 {<1c1c121211112121c1c12121111112121c1c121211112121c1c1212111111212> PTRN} bind def
/Pattern29 {<3e3e414180808080e3e31414080808083e3e414180808080e3e3141408080808> PTRN} bind def
/Pattern30 {<4848888884848383848488884848383848488888848483838484888848483838> PTRN} bind def
/Pattern31 {<03030404080808080c0c12122121c0c003030404080808080c0c12122121c0c0> PTRN} bind def
/ellipsedict 8 dict def
ellipsedict /mtrx matrix put
/EARC {
 ellipsedict begin
  /endangle exch def
  /startangle exch def
  /yrad exch def
  /xrad exch def
  /y exch def
  /x exch def
  /savematrix mtrx currentmatrix def
  x y translate
  xrad yrad scale
  0 0 1 startangle endangle arc
  savematrix setmatrix
 end
} def
/TL {
  /kcomp exch def
  /linewidth exch def
  /offset exch def
  GS
  0 offset rmoveto
  linewidth SLW
  dup stringwidth exch kcomp add exch RL s
  GR
} def
/KINIT
{
 /kvector exch def
 /kid 0 def
} def
/KPROC
{
 pop pop
 kvector kid get
 0 rmoveto
 /kid 1 kid add def
} def
/DefEncoding [
 /.notdef
 /.notdef
 /.notdef
 /.notdef
 /.notdef
 /.notdef
 /.notdef
 /.notdef
 /.notdef
 /.notdef
 /.notdef
 /.notdef
 /.notdef
 /.notdef
 /.notdef
 /.notdef
 /.notdef
 /.notdef
 /.notdef
 /.notdef
 /.notdef
 /.notdef
 /.notdef
 /.notdef
 /.notdef
 /.notdef
 /.notdef
 /.notdef
 /.notdef
 /.notdef
 /.notdef
 /.notdef
 /space
 /exclam
 /quotedbl
 /numbersign
 /dollar
 /percent
 /ampersand
 /quoteright
 /parenleft
 /parenright
 /asterisk
 /plus
 /comma
 /hyphen
 /period
 /slash
 /zero
 /one
 /two
 /three
 /four
 /five
 /six
 /seven
 /eight
 /nine
 /colon
 /semicolon
 /less
 /equal
 /greater
 /question
 /at
 /A
 /B
 /C
 /D
 /E
 /F
 /G
 /H
 /I
 /J
 /K
 /L
 /M
 /N
 /O
 /P
 /Q
 /R
 /S
 /T
 /U
 /V
 /W
 /X
 /Y
 /Z
 /bracketleft
 /backslash
 /bracketright
 /asciicircum
 /underscore
 /grave
 /a
 /b
 /c
 /d
 /e
 /f
 /g
 /h
 /i
 /j
 /k
 /l
 /m
 /n
 /o
 /p
 /q
 /r
 /s
 /t
 /u
 /v
 /w
 /x
 /y
 /z
 /braceleft
 /bar
 /braceright
 /asciitilde
 /.notdef
 /.notdef
 /.notdef
 /.notdef
 /.notdef
 /.notdef
 /.notdef
 /.notdef
 /.notdef
 /.notdef
 /.notdef
 /.notdef
 /.notdef
 /.notdef
 /.notdef
 /.notdef
 /.notdef
 /.notdef
 /.notdef
 /.notdef
 /.notdef
 /.notdef
 /.notdef
 /.notdef
 /.notdef
 /.notdef
 /.notdef
 /.notdef
 /.notdef
 /.notdef
 /.notdef
 /.notdef
 /.notdef
 /space
 /exclamdown
 /cent
 /sterling
 /currency
 /yen
 /brokenbar
 /section
 /dieresis
 /copyright
 /ordfeminine
 /guillemotleft
 /logicalnot
 /hyphen
 /registered
 /macron
 /degree
 /plusminus
 /twosuperior
 /threesuperior
 /acute
 /mu
 /paragraph
 /periodcentered
 /cedilla
 /onesuperior
 /ordmasculine
 /guillemotright
 /onequarter
 /onehalf
 /threequarters
 /questiondown
 /Agrave
 /Aacute
 /Acircumflex
 /Atilde
 /Adieresis
 /Aring
 /AE
 /Ccedilla
 /Egrave
 /Eacute
 /Ecircumflex
 /Edieresis
 /Igrave
 /Iacute
 /Icircumflex
 /Idieresis
 /Eth
 /Ntilde
 /Ograve
 /Oacute
 /Ocircumflex
 /Otilde
 /Odieresis
 /multiply
 /Oslash
 /Ugrave
 /Uacute
 /Ucircumflex
 /Udieresis
 /Yacute
 /Thorn
 /germandbls
 /agrave
 /aacute
 /acircumflex
 /atilde
 /adieresis
 /aring
 /ae
 /ccedilla
 /egrave
 /eacute
 /ecircumflex
 /edieresis
 /igrave
 /iacute
 /icircumflex
 /idieresis
 /eth
 /ntilde
 /ograve
 /oacute
 /ocircumflex
 /otilde
 /odieresis
 /divide
 /oslash
 /ugrave
 /uacute
 /ucircumflex
 /udieresis
 /yacute
 /thorn
 /ydieresis
] def
%%EndProlog
%%BeginSetup
%%EndSetup
612.00 612.00 scale
[/DeviceRGB] SCS
Color1 SC
[0.0150 0.0090 ] 0 SD
0.0030 SLW
0 SLC
0 SLJ
n
0.2750 0.6212 m
0.3250 0.8296 l
0.3750 0.8412 l
0.4250 0.7779 l
0.4750 0.6943 l
0.5250 0.6054 l
0.5750 0.5161 l
0.6250 0.4258 l
0.6750 0.3409 l
0.7250 0.2428 l
0.7750 0.2039 l
0.8013 0.1499 l
s
[] 0 SD
0.0015 SLW
n
0.2750 0.6212 m
0.2750 0.6217 l
s
[] 0 SD
0.0030 SLW
n
0.2650 0.6217 m
0.2850 0.6217 l
s
[] 0 SD
0.0015 SLW
n
0.2750 0.6212 m
0.2750 0.6206 l
s
[] 0 SD
0.0030 SLW
n
0.2850 0.6206 m
0.2650 0.6206 l
s
[] 0 SD
0.0015 SLW
n
0.3250 0.8296 m
0.3250 0.8297 l
s
[] 0 SD
0.0030 SLW
n
0.3150 0.8297 m
0.3350 0.8297 l
s
[] 0 SD
0.0015 SLW
n
0.3250 0.8296 m
0.3250 0.8295 l
s
[] 0 SD
0.0030 SLW
n
0.3350 0.8295 m
0.3150 0.8295 l
s
[] 0 SD
0.0015 SLW
n
0.3750 0.8412 m
0.3750 0.8413 l
s
[] 0 SD
0.0030 SLW
n
0.3650 0.8413 m
0.3850 0.8413 l
s
[] 0 SD
0.0015 SLW
n
0.3750 0.8412 m
0.3750 0.8412 l
s
[] 0 SD
0.0030 SLW
n
0.3850 0.8412 m
0.3650 0.8412 l
s
[] 0 SD
0.0015 SLW
n
0.4250 0.7779 m
0.4250 0.7781 l
s
[] 0 SD
0.0030 SLW
n
0.4150 0.7781 m
0.4350 0.7781 l
s
[] 0 SD
0.0015 SLW
n
0.4250 0.7779 m
0.4250 0.7778 l
s
[] 0 SD
0.0030 SLW
n
0.4350 0.7778 m
0.4150 0.7778 l
s
[] 0 SD
0.0015 SLW
n
0.4750 0.6943 m
0.4750 0.6946 l
s
[] 0 SD
0.0030 SLW
n
0.4650 0.6946 m
0.4850 0.6946 l
s
[] 0 SD
0.0015 SLW
n
0.4750 0.6943 m
0.4750 0.6940 l
s
[] 0 SD
0.0030 SLW
n
0.4850 0.6940 m
0.4650 0.6940 l
s
[] 0 SD
0.0015 SLW
n
0.5250 0.6054 m
0.5250 0.6061 l
s
[] 0 SD
0.0030 SLW
n
0.5150 0.6061 m
0.5350 0.6061 l
s
[] 0 SD
0.0015 SLW
n
0.5250 0.6054 m
0.5250 0.6048 l
s
[] 0 SD
0.0030 SLW
n
0.5350 0.6048 m
0.5150 0.6048 l
s
[] 0 SD
0.0015 SLW
n
0.5750 0.5161 m
0.5750 0.5174 l
s
[] 0 SD
0.0030 SLW
n
0.5650 0.5174 m
0.5850 0.5174 l
s
[] 0 SD
0.0015 SLW
n
0.5750 0.5161 m
0.5750 0.5147 l
s
[] 0 SD
0.0030 SLW
n
0.5850 0.5147 m
0.5650 0.5147 l
s
[] 0 SD
0.0015 SLW
n
0.6250 0.4258 m
0.6250 0.4286 l
s
[] 0 SD
0.0030 SLW
n
0.6150 0.4286 m
0.6350 0.4286 l
s
[] 0 SD
0.0015 SLW
n
0.6250 0.4258 m
0.6250 0.4229 l
s
[] 0 SD
0.0030 SLW
n
0.6350 0.4229 m
0.6150 0.4229 l
s
[] 0 SD
0.0015 SLW
n
0.6750 0.3409 m
0.6750 0.3465 l
s
[] 0 SD
0.0030 SLW
n
0.6650 0.3465 m
0.6850 0.3465 l
s
[] 0 SD
0.0015 SLW
n
0.6750 0.3409 m
0.6750 0.3348 l
s
[] 0 SD
0.0030 SLW
n
0.6850 0.3348 m
0.6650 0.3348 l
s
[] 0 SD
0.0015 SLW
n
0.7250 0.2428 m
0.7250 0.2547 l
s
[] 0 SD
0.0030 SLW
n
0.7150 0.2547 m
0.7350 0.2547 l
s
[] 0 SD
0.0015 SLW
n
0.7250 0.2428 m
0.7250 0.2280 l
s
[] 0 SD
0.0030 SLW
n
0.7350 0.2280 m
0.7150 0.2280 l
s
[] 0 SD
0.0015 SLW
n
0.7750 0.2039 m
0.7750 0.2197 l
s
[] 0 SD
0.0030 SLW
n
0.7650 0.2197 m
0.7850 0.2197 l
s
[] 0 SD
0.0015 SLW
n
0.7750 0.2039 m
0.7750 0.1822 l
s
[] 0 SD
0.0030 SLW
n
0.7850 0.1822 m
0.7650 0.1822 l
s
n 0.2750 0.6212 0.0100 0.0100 0 360 EARC s
n 0.3250 0.8296 0.0100 0.0100 0 360 EARC s
n 0.3750 0.8412 0.0100 0.0100 0 360 EARC s
n 0.4250 0.7779 0.0100 0.0100 0 360 EARC s
n 0.4750 0.6943 0.0100 0.0100 0 360 EARC s
n 0.5250 0.6054 0.0100 0.0100 0 360 EARC s
n 0.5750 0.5161 0.0100 0.0100 0 360 EARC s
n 0.6250 0.4258 0.0100 0.0100 0 360 EARC s
n 0.6750 0.3409 0.0100 0.0100 0 360 EARC s
n 0.7250 0.2428 0.0100 0.0100 0 360 EARC s
n 0.7750 0.2039 0.0100 0.0100 0 360 EARC s
[] 0 SD
0.0015 SLW
n
0.1500 0.1500 m
0.8500 0.1500 l
s
n
0.1500 0.8500 m
0.8500 0.8500 l
s
n
0.1700 0.1500 m
0.1700 0.1600 l
s
n
0.1700 0.8500 m
0.1700 0.8400 l
s
n
0.1900 0.1500 m
0.1900 0.1600 l
s
n
0.1900 0.8500 m
0.1900 0.8400 l
s
n
0.2100 0.1500 m
0.2100 0.1600 l
s
n
0.2100 0.8500 m
0.2100 0.8400 l
s
n
0.2300 0.1500 m
0.2300 0.1600 l
s
n
0.2300 0.8500 m
0.2300 0.8400 l
s
n
0.2700 0.1500 m
0.2700 0.1600 l
s
n
0.2700 0.8500 m
0.2700 0.8400 l
s
n
0.2900 0.1500 m
0.2900 0.1600 l
s
n
0.2900 0.8500 m
0.2900 0.8400 l
s
n
0.3100 0.1500 m
0.3100 0.1600 l
s
n
0.3100 0.8500 m
0.3100 0.8400 l
s
n
0.3300 0.1500 m
0.3300 0.1600 l
s
n
0.3300 0.8500 m
0.3300 0.8400 l
s
n
0.3700 0.1500 m
0.3700 0.1600 l
s
n
0.3700 0.8500 m
0.3700 0.8400 l
s
n
0.3900 0.1500 m
0.3900 0.1600 l
s
n
0.3900 0.8500 m
0.3900 0.8400 l
s
n
0.4100 0.1500 m
0.4100 0.1600 l
s
n
0.4100 0.8500 m
0.4100 0.8400 l
s
n
0.4300 0.1500 m
0.4300 0.1600 l
s
n
0.4300 0.8500 m
0.4300 0.8400 l
s
n
0.4700 0.1500 m
0.4700 0.1600 l
s
n
0.4700 0.8500 m
0.4700 0.8400 l
s
n
0.4900 0.1500 m
0.4900 0.1600 l
s
n
0.4900 0.8500 m
0.4900 0.8400 l
s
n
0.5100 0.1500 m
0.5100 0.1600 l
s
n
0.5100 0.8500 m
0.5100 0.8400 l
s
n
0.5300 0.1500 m
0.5300 0.1600 l
s
n
0.5300 0.8500 m
0.5300 0.8400 l
s
n
0.5700 0.1500 m
0.5700 0.1600 l
s
n
0.5700 0.8500 m
0.5700 0.8400 l
s
n
0.5900 0.1500 m
0.5900 0.1600 l
s
n
0.5900 0.8500 m
0.5900 0.8400 l
s
n
0.6100 0.1500 m
0.6100 0.1600 l
s
n
0.6100 0.8500 m
0.6100 0.8400 l
s
n
0.6300 0.1500 m
0.6300 0.1600 l
s
n
0.6300 0.8500 m
0.6300 0.8400 l
s
n
0.6700 0.1500 m
0.6700 0.1600 l
s
n
0.6700 0.8500 m
0.6700 0.8400 l
s
n
0.6900 0.1500 m
0.6900 0.1600 l
s
n
0.6900 0.8500 m
0.6900 0.8400 l
s
n
0.7100 0.1500 m
0.7100 0.1600 l
s
n
0.7100 0.8500 m
0.7100 0.8400 l
s
n
0.7300 0.1500 m
0.7300 0.1600 l
s
n
0.7300 0.8500 m
0.7300 0.8400 l
s
n
0.7700 0.1500 m
0.7700 0.1600 l
s
n
0.7700 0.8500 m
0.7700 0.8400 l
s
n
0.7900 0.1500 m
0.7900 0.1600 l
s
n
0.7900 0.8500 m
0.7900 0.8400 l
s
n
0.8100 0.1500 m
0.8100 0.1600 l
s
n
0.8100 0.8500 m
0.8100 0.8400 l
s
n
0.8300 0.1500 m
0.8300 0.1600 l
s
n
0.8300 0.8500 m
0.8300 0.8400 l
s
n
0.1500 0.1500 m
0.1500 0.1700 l
s
n
0.1500 0.8500 m
0.1500 0.8300 l
s
n
0.2500 0.1500 m
0.2500 0.1700 l
s
n
0.2500 0.8500 m
0.2500 0.8300 l
s
n
0.3500 0.1500 m
0.3500 0.1700 l
s
n
0.3500 0.8500 m
0.3500 0.8300 l
s
n
0.4500 0.1500 m
0.4500 0.1700 l
s
n
0.4500 0.8500 m
0.4500 0.8300 l
s
n
0.5500 0.1500 m
0.5500 0.1700 l
s
n
0.5500 0.8500 m
0.5500 0.8300 l
s
n
0.6500 0.1500 m
0.6500 0.1700 l
s
n
0.6500 0.8500 m
0.6500 0.8300 l
s
n
0.7500 0.1500 m
0.7500 0.1700 l
s
n
0.7500 0.8500 m
0.7500 0.8300 l
s
n
0.8500 0.1500 m
0.8500 0.1700 l
s
n
0.8500 0.8500 m
0.8500 0.8300 l
s
/Times-Roman findfont
dup length dict begin
 {1 index /FID ne {def} {pop pop} ifelse} forall
 /Encoding DefEncoding def
 currentdict
end
/Font0 exch definefont pop
/Font0 FFSF
0.1402 0.1122 m
GS
[0.0414 0.0000 0.0000 0.0414 0 0] CC
(0) show
GR
/Font0 FFSF
0.2418 0.1122 m
GS
[0.0414 0.0000 0.0000 0.0414 0 0] CC
(1) show
GR
/Font0 FFSF
0.3402 0.1122 m
GS
[0.0414 0.0000 0.0000 0.0414 0 0] CC
(2) show
GR
/Font0 FFSF
0.4410 0.1122 m
GS
[0.0414 0.0000 0.0000 0.0414 0 0] CC
(3) show
GR
/Font0 FFSF
0.5402 0.1122 m
GS
[0.0414 0.0000 0.0000 0.0414 0 0] CC
(4) show
GR
/Font0 FFSF
0.6410 0.1114 m
GS
[0.0414 0.0000 0.0000 0.0414 0 0] CC
(5) show
GR
/Font0 FFSF
0.7402 0.1118 m
GS
[0.0414 0.0000 0.0000 0.0414 0 0] CC
(6) show
GR
/Font0 FFSF
0.8408 0.1125 m
GS
[0.0414 0.0000 0.0000 0.0414 0 0] CC
(7) show
GR
/Times-Italic findfont
dup length dict begin
 {1 index /FID ne {def} {pop pop} ifelse} forall
 /Encoding DefEncoding def
 currentdict
end
/Font1 exch definefont pop
/Font1 FFSF
0.4908 0.0818 m
GS
[0.0437 0.0000 0.0000 0.0437 0 0] CC
(x) show
GR
n
0.1500 0.1500 m
0.1500 0.8500 l
s
n
0.8500 0.1500 m
0.8500 0.8500 l
s
n
0.1500 0.1500 m
0.1600 0.1500 l
s
n
0.8500 0.1500 m
0.8400 0.1500 l
s
n
0.1500 0.1563 m
0.1600 0.1563 l
s
n
0.8500 0.1563 m
0.8400 0.1563 l
s
n
0.1500 0.1981 m
0.1600 0.1981 l
s
n
0.8500 0.1981 m
0.8400 0.1981 l
s
n
0.1500 0.2225 m
0.1600 0.2225 l
s
n
0.8500 0.2225 m
0.8400 0.2225 l
s
n
0.1500 0.2399 m
0.1600 0.2399 l
s
n
0.8500 0.2399 m
0.8400 0.2399 l
s
n
0.1500 0.2533 m
0.1600 0.2533 l
s
n
0.8500 0.2533 m
0.8400 0.2533 l
s
n
0.1500 0.2643 m
0.1600 0.2643 l
s
n
0.8500 0.2643 m
0.8400 0.2643 l
s
n
0.1500 0.2736 m
0.1600 0.2736 l
s
n
0.8500 0.2736 m
0.8400 0.2736 l
s
n
0.1500 0.2816 m
0.1600 0.2816 l
s
n
0.8500 0.2816 m
0.8400 0.2816 l
s
n
0.1500 0.2887 m
0.1600 0.2887 l
s
n
0.8500 0.2887 m
0.8400 0.2887 l
s
n
0.1500 0.2951 m
0.1600 0.2951 l
s
n
0.8500 0.2951 m
0.8400 0.2951 l
s
n
0.1500 0.3368 m
0.1600 0.3368 l
s
n
0.8500 0.3368 m
0.8400 0.3368 l
s
n
0.1500 0.3613 m
0.1600 0.3613 l
s
n
0.8500 0.3613 m
0.8400 0.3613 l
s
n
0.1500 0.3786 m
0.1600 0.3786 l
s
n
0.8500 0.3786 m
0.8400 0.3786 l
s
n
0.1500 0.3920 m
0.1600 0.3920 l
s
n
0.8500 0.3920 m
0.8400 0.3920 l
s
n
0.1500 0.4030 m
0.1600 0.4030 l
s
n
0.8500 0.4030 m
0.8400 0.4030 l
s
n
0.1500 0.4123 m
0.1600 0.4123 l
s
n
0.8500 0.4123 m
0.8400 0.4123 l
s
n
0.1500 0.4204 m
0.1600 0.4204 l
s
n
0.8500 0.4204 m
0.8400 0.4204 l
s
n
0.1500 0.4275 m
0.1600 0.4275 l
s
n
0.8500 0.4275 m
0.8400 0.4275 l
s
n
0.1500 0.4338 m
0.1600 0.4338 l
s
n
0.8500 0.4338 m
0.8400 0.4338 l
s
n
0.1500 0.4756 m
0.1600 0.4756 l
s
n
0.8500 0.4756 m
0.8400 0.4756 l
s
n
0.1500 0.5000 m
0.1600 0.5000 l
s
n
0.8500 0.5000 m
0.8400 0.5000 l
s
n
0.1500 0.5173 m
0.1600 0.5173 l
s
n
0.8500 0.5173 m
0.8400 0.5173 l
s
n
0.1500 0.5308 m
0.1600 0.5308 l
s
n
0.8500 0.5308 m
0.8400 0.5308 l
s
n
0.1500 0.5418 m
0.1600 0.5418 l
s
n
0.8500 0.5418 m
0.8400 0.5418 l
s
n
0.1500 0.5510 m
0.1600 0.5510 l
s
n
0.8500 0.5510 m
0.8400 0.5510 l
s
n
0.1500 0.5591 m
0.1600 0.5591 l
s
n
0.8500 0.5591 m
0.8400 0.5591 l
s
n
0.1500 0.5662 m
0.1600 0.5662 l
s
n
0.8500 0.5662 m
0.8400 0.5662 l
s
n
0.1500 0.5725 m
0.1600 0.5725 l
s
n
0.8500 0.5725 m
0.8400 0.5725 l
s
n
0.1500 0.6143 m
0.1600 0.6143 l
s
n
0.8500 0.6143 m
0.8400 0.6143 l
s
n
0.1500 0.6387 m
0.1600 0.6387 l
s
n
0.8500 0.6387 m
0.8400 0.6387 l
s
n
0.1500 0.6561 m
0.1600 0.6561 l
s
n
0.8500 0.6561 m
0.8400 0.6561 l
s
n
0.1500 0.6695 m
0.1600 0.6695 l
s
n
0.8500 0.6695 m
0.8400 0.6695 l
s
n
0.1500 0.6805 m
0.1600 0.6805 l
s
n
0.8500 0.6805 m
0.8400 0.6805 l
s
n
0.1500 0.6898 m
0.1600 0.6898 l
s
n
0.8500 0.6898 m
0.8400 0.6898 l
s
n
0.1500 0.6978 m
0.1600 0.6978 l
s
n
0.8500 0.6978 m
0.8400 0.6978 l
s
n
0.1500 0.7049 m
0.1600 0.7049 l
s
n
0.8500 0.7049 m
0.8400 0.7049 l
s
n
0.1500 0.7113 m
0.1600 0.7113 l
s
n
0.8500 0.7113 m
0.8400 0.7113 l
s
n
0.1500 0.7530 m
0.1600 0.7530 l
s
n
0.8500 0.7530 m
0.8400 0.7530 l
s
n
0.1500 0.7775 m
0.1600 0.7775 l
s
n
0.8500 0.7775 m
0.8400 0.7775 l
s
n
0.1500 0.7948 m
0.1600 0.7948 l
s
n
0.8500 0.7948 m
0.8400 0.7948 l
s
n
0.1500 0.8082 m
0.1600 0.8082 l
s
n
0.8500 0.8082 m
0.8400 0.8082 l
s
n
0.1500 0.8192 m
0.1600 0.8192 l
s
n
0.8500 0.8192 m
0.8400 0.8192 l
s
n
0.1500 0.8285 m
0.1600 0.8285 l
s
n
0.8500 0.8285 m
0.8400 0.8285 l
s
n
0.1500 0.8366 m
0.1600 0.8366 l
s
n
0.8500 0.8366 m
0.8400 0.8366 l
s
n
0.1500 0.8437 m
0.1600 0.8437 l
s
n
0.8500 0.8437 m
0.8400 0.8437 l
s
n
0.1500 0.8500 m
0.1600 0.8500 l
s
n
0.8500 0.8500 m
0.8400 0.8500 l
s
n
0.1500 0.1563 m
0.1700 0.1563 l
s
n
0.8500 0.1563 m
0.8300 0.1563 l
s
n
0.1500 0.2951 m
0.1700 0.2951 l
s
n
0.8500 0.2951 m
0.8300 0.2951 l
s
n
0.1500 0.4338 m
0.1700 0.4338 l
s
n
0.8500 0.4338 m
0.8300 0.4338 l
s
n
0.1500 0.5725 m
0.1700 0.5725 l
s
n
0.8500 0.5725 m
0.8300 0.5725 l
s
n
0.1500 0.7113 m
0.1700 0.7113 l
s
n
0.8500 0.7113 m
0.8300 0.7113 l
s
n
0.1500 0.8500 m
0.1700 0.8500 l
s
n
0.8500 0.8500 m
0.8300 0.8500 l
s
/Font0 FFSF
0.0733 0.1334 m
GS
[0.0431 0.0000 0.0000 0.0431 0 0] CC
(10) show
GR
/Font0 FFSF
0.1165 0.1593 m
GS
[0.0305 0.0000 0.0000 0.0305 0 0] CC
(-5) show
GR
/Font0 FFSF
0.0722 0.2723 m
GS
[0.0431 0.0000 0.0000 0.0431 0 0] CC
(10) show
GR
/Font0 FFSF
0.1153 0.2982 m
GS
[0.0305 0.0000 0.0000 0.0305 0 0] CC
(-4) show
GR
/Font0 FFSF
0.0733 0.4111 m
GS
[0.0431 0.0000 0.0000 0.0431 0 0] CC
(10) show
GR
/Font0 FFSF
0.1165 0.4369 m
GS
[0.0305 0.0000 0.0000 0.0305 0 0] CC
(-3) show
GR
/Font0 FFSF
0.0722 0.5498 m
GS
[0.0431 0.0000 0.0000 0.0431 0 0] CC
(10) show
GR
/Font0 FFSF
0.1153 0.5757 m
GS
[0.0305 0.0000 0.0000 0.0305 0 0] CC
(-2) show
GR
/Font0 FFSF
0.0745 0.6885 m
GS
[0.0431 0.0000 0.0000 0.0431 0 0] CC
(10) show
GR
/Font0 FFSF
0.1176 0.7144 m
GS
[0.0305 0.0000 0.0000 0.0305 0 0] CC
(-1) show
GR
/Font0 FFSF
0.0824 0.8273 m
GS
[0.0431 0.0000 0.0000 0.0431 0 0] CC
(10) show
GR
/Font0 FFSF
0.1255 0.8531 m
GS
[0.0305 0.0000 0.0000 0.0305 0 0] CC
(0) show
GR
/Font1 FFSF
0.0543 0.4633 m
GS
[0.0000 0.0437 -0.0437 0.0000 0 0] CC
(P\(x\)) show
GR
[] 0 SD
0.0030 SLW
n
0.1500 0.1500 m
0.1500 0.8500 l
0.8500 0.8500 l
0.8500 0.1500 l
0.1500 0.1500 l
c
s
[] 0 SD
0.0023 SLW
n
0.2707 0.2172 m
0.2950 0.4397 l
0.3193 0.4885 l
0.3436 0.3075 l
0.3679 0.2343 l
0.3921 0.2156 l
0.4164 0.2113 l
0.4407 0.2103 l
0.4650 0.2101 l
0.4893 0.2100 l
0.5136 0.2100 l
0.5379 0.2100 l
s
[] 0 SD
0.0030 SLW
n 0.2707 0.2172 0.0065 0.0065 0 360 EARC s
n 0.2950 0.4397 0.0065 0.0065 0 360 EARC s
n 0.3193 0.4885 0.0065 0.0065 0 360 EARC s
n 0.3436 0.3075 0.0065 0.0065 0 360 EARC s
n 0.3679 0.2343 0.0065 0.0065 0 360 EARC s
n 0.3921 0.2156 0.0065 0.0065 0 360 EARC s
n 0.4164 0.2113 0.0065 0.0065 0 360 EARC s
n 0.4407 0.2103 0.0065 0.0065 0 360 EARC s
n 0.4650 0.2101 0.0065 0.0065 0 360 EARC s
n 0.4893 0.2100 0.0065 0.0065 0 360 EARC s
n 0.5136 0.2100 0.0065 0.0065 0 360 EARC s
n 0.5379 0.2100 0.0065 0.0065 0 360 EARC s
[] 0 SD
0.0015 SLW
n
0.2100 0.2100 m
0.5500 0.2100 l
s
n
0.2100 0.5000 m
0.5500 0.5000 l
s
n
0.2149 0.2100 m
0.2149 0.2200 l
s
n
0.2149 0.5000 m
0.2149 0.4900 l
s
n
0.2197 0.2100 m
0.2197 0.2200 l
s
n
0.2197 0.5000 m
0.2197 0.4900 l
s
n
0.2246 0.2100 m
0.2246 0.2200 l
s
n
0.2246 0.5000 m
0.2246 0.4900 l
s
n
0.2294 0.2100 m
0.2294 0.2200 l
s
n
0.2294 0.5000 m
0.2294 0.4900 l
s
n
0.2343 0.2100 m
0.2343 0.2200 l
s
n
0.2343 0.5000 m
0.2343 0.4900 l
s
n
0.2391 0.2100 m
0.2391 0.2200 l
s
n
0.2391 0.5000 m
0.2391 0.4900 l
s
n
0.2440 0.2100 m
0.2440 0.2200 l
s
n
0.2440 0.5000 m
0.2440 0.4900 l
s
n
0.2489 0.2100 m
0.2489 0.2200 l
s
n
0.2489 0.5000 m
0.2489 0.4900 l
s
n
0.2537 0.2100 m
0.2537 0.2200 l
s
n
0.2537 0.5000 m
0.2537 0.4900 l
s
n
0.2634 0.2100 m
0.2634 0.2200 l
s
n
0.2634 0.5000 m
0.2634 0.4900 l
s
n
0.2683 0.2100 m
0.2683 0.2200 l
s
n
0.2683 0.5000 m
0.2683 0.4900 l
s
n
0.2731 0.2100 m
0.2731 0.2200 l
s
n
0.2731 0.5000 m
0.2731 0.4900 l
s
n
0.2780 0.2100 m
0.2780 0.2200 l
s
n
0.2780 0.5000 m
0.2780 0.4900 l
s
n
0.2829 0.2100 m
0.2829 0.2200 l
s
n
0.2829 0.5000 m
0.2829 0.4900 l
s
n
0.2877 0.2100 m
0.2877 0.2200 l
s
n
0.2877 0.5000 m
0.2877 0.4900 l
s
n
0.2926 0.2100 m
0.2926 0.2200 l
s
n
0.2926 0.5000 m
0.2926 0.4900 l
s
n
0.2974 0.2100 m
0.2974 0.2200 l
s
n
0.2974 0.5000 m
0.2974 0.4900 l
s
n
0.3023 0.2100 m
0.3023 0.2200 l
s
n
0.3023 0.5000 m
0.3023 0.4900 l
s
n
0.3120 0.2100 m
0.3120 0.2200 l
s
n
0.3120 0.5000 m
0.3120 0.4900 l
s
n
0.3169 0.2100 m
0.3169 0.2200 l
s
n
0.3169 0.5000 m
0.3169 0.4900 l
s
n
0.3217 0.2100 m
0.3217 0.2200 l
s
n
0.3217 0.5000 m
0.3217 0.4900 l
s
n
0.3266 0.2100 m
0.3266 0.2200 l
s
n
0.3266 0.5000 m
0.3266 0.4900 l
s
n
0.3314 0.2100 m
0.3314 0.2200 l
s
n
0.3314 0.5000 m
0.3314 0.4900 l
s
n
0.3363 0.2100 m
0.3363 0.2200 l
s
n
0.3363 0.5000 m
0.3363 0.4900 l
s
n
0.3411 0.2100 m
0.3411 0.2200 l
s
n
0.3411 0.5000 m
0.3411 0.4900 l
s
n
0.3460 0.2100 m
0.3460 0.2200 l
s
n
0.3460 0.5000 m
0.3460 0.4900 l
s
n
0.3509 0.2100 m
0.3509 0.2200 l
s
n
0.3509 0.5000 m
0.3509 0.4900 l
s
n
0.3606 0.2100 m
0.3606 0.2200 l
s
n
0.3606 0.5000 m
0.3606 0.4900 l
s
n
0.3654 0.2100 m
0.3654 0.2200 l
s
n
0.3654 0.5000 m
0.3654 0.4900 l
s
n
0.3703 0.2100 m
0.3703 0.2200 l
s
n
0.3703 0.5000 m
0.3703 0.4900 l
s
n
0.3751 0.2100 m
0.3751 0.2200 l
s
n
0.3751 0.5000 m
0.3751 0.4900 l
s
n
0.3800 0.2100 m
0.3800 0.2200 l
s
n
0.3800 0.5000 m
0.3800 0.4900 l
s
n
0.3849 0.2100 m
0.3849 0.2200 l
s
n
0.3849 0.5000 m
0.3849 0.4900 l
s
n
0.3897 0.2100 m
0.3897 0.2200 l
s
n
0.3897 0.5000 m
0.3897 0.4900 l
s
n
0.3946 0.2100 m
0.3946 0.2200 l
s
n
0.3946 0.5000 m
0.3946 0.4900 l
s
n
0.3994 0.2100 m
0.3994 0.2200 l
s
n
0.3994 0.5000 m
0.3994 0.4900 l
s
n
0.4091 0.2100 m
0.4091 0.2200 l
s
n
0.4091 0.5000 m
0.4091 0.4900 l
s
n
0.4140 0.2100 m
0.4140 0.2200 l
s
n
0.4140 0.5000 m
0.4140 0.4900 l
s
n
0.4189 0.2100 m
0.4189 0.2200 l
s
n
0.4189 0.5000 m
0.4189 0.4900 l
s
n
0.4237 0.2100 m
0.4237 0.2200 l
s
n
0.4237 0.5000 m
0.4237 0.4900 l
s
n
0.4286 0.2100 m
0.4286 0.2200 l
s
n
0.4286 0.5000 m
0.4286 0.4900 l
s
n
0.4334 0.2100 m
0.4334 0.2200 l
s
n
0.4334 0.5000 m
0.4334 0.4900 l
s
n
0.4383 0.2100 m
0.4383 0.2200 l
s
n
0.4383 0.5000 m
0.4383 0.4900 l
s
n
0.4431 0.2100 m
0.4431 0.2200 l
s
n
0.4431 0.5000 m
0.4431 0.4900 l
s
n
0.4480 0.2100 m
0.4480 0.2200 l
s
n
0.4480 0.5000 m
0.4480 0.4900 l
s
n
0.4577 0.2100 m
0.4577 0.2200 l
s
n
0.4577 0.5000 m
0.4577 0.4900 l
s
n
0.4626 0.2100 m
0.4626 0.2200 l
s
n
0.4626 0.5000 m
0.4626 0.4900 l
s
n
0.4674 0.2100 m
0.4674 0.2200 l
s
n
0.4674 0.5000 m
0.4674 0.4900 l
s
n
0.4723 0.2100 m
0.4723 0.2200 l
s
n
0.4723 0.5000 m
0.4723 0.4900 l
s
n
0.4771 0.2100 m
0.4771 0.2200 l
s
n
0.4771 0.5000 m
0.4771 0.4900 l
s
n
0.4820 0.2100 m
0.4820 0.2200 l
s
n
0.4820 0.5000 m
0.4820 0.4900 l
s
n
0.4869 0.2100 m
0.4869 0.2200 l
s
n
0.4869 0.5000 m
0.4869 0.4900 l
s
n
0.4917 0.2100 m
0.4917 0.2200 l
s
n
0.4917 0.5000 m
0.4917 0.4900 l
s
n
0.4966 0.2100 m
0.4966 0.2200 l
s
n
0.4966 0.5000 m
0.4966 0.4900 l
s
n
0.5063 0.2100 m
0.5063 0.2200 l
s
n
0.5063 0.5000 m
0.5063 0.4900 l
s
n
0.5111 0.2100 m
0.5111 0.2200 l
s
n
0.5111 0.5000 m
0.5111 0.4900 l
s
n
0.5160 0.2100 m
0.5160 0.2200 l
s
n
0.5160 0.5000 m
0.5160 0.4900 l
s
n
0.5209 0.2100 m
0.5209 0.2200 l
s
n
0.5209 0.5000 m
0.5209 0.4900 l
s
n
0.5257 0.2100 m
0.5257 0.2200 l
s
n
0.5257 0.5000 m
0.5257 0.4900 l
s
n
0.5306 0.2100 m
0.5306 0.2200 l
s
n
0.5306 0.5000 m
0.5306 0.4900 l
s
n
0.5354 0.2100 m
0.5354 0.2200 l
s
n
0.5354 0.5000 m
0.5354 0.4900 l
s
n
0.5403 0.2100 m
0.5403 0.2200 l
s
n
0.5403 0.5000 m
0.5403 0.4900 l
s
n
0.5451 0.2100 m
0.5451 0.2200 l
s
n
0.5451 0.5000 m
0.5451 0.4900 l
s
n
0.2100 0.2100 m
0.2100 0.2300 l
s
n
0.2100 0.5000 m
0.2100 0.4800 l
s
n
0.2586 0.2100 m
0.2586 0.2300 l
s
n
0.2586 0.5000 m
0.2586 0.4800 l
s
n
0.3071 0.2100 m
0.3071 0.2300 l
s
n
0.3071 0.5000 m
0.3071 0.4800 l
s
n
0.3557 0.2100 m
0.3557 0.2300 l
s
n
0.3557 0.5000 m
0.3557 0.4800 l
s
n
0.4043 0.2100 m
0.4043 0.2300 l
s
n
0.4043 0.5000 m
0.4043 0.4800 l
s
n
0.4529 0.2100 m
0.4529 0.2300 l
s
n
0.4529 0.5000 m
0.4529 0.4800 l
s
n
0.5014 0.2100 m
0.5014 0.2300 l
s
n
0.5014 0.5000 m
0.5014 0.4800 l
s
n
0.5500 0.2100 m
0.5500 0.2300 l
s
n
0.5500 0.5000 m
0.5500 0.4800 l
s
/Font0 FFSF
0.2033 0.1812 m
GS
[0.0280 0.0000 0.0000 0.0280 0 0] CC
(0) show
GR
/Font0 FFSF
0.2531 0.1812 m
GS
[0.0280 0.0000 0.0000 0.0280 0 0] CC
(1) show
GR
/Font0 FFSF
0.3005 0.1812 m
GS
[0.0280 0.0000 0.0000 0.0280 0 0] CC
(2) show
GR
/Font0 FFSF
0.3496 0.1812 m
GS
[0.0280 0.0000 0.0000 0.0280 0 0] CC
(3) show
GR
/Font0 FFSF
0.3976 0.1812 m
GS
[0.0280 0.0000 0.0000 0.0280 0 0] CC
(4) show
GR
/Font0 FFSF
0.4468 0.1808 m
GS
[0.0280 0.0000 0.0000 0.0280 0 0] CC
(5) show
GR
/Font0 FFSF
0.4950 0.1808 m
GS
[0.0280 0.0000 0.0000 0.0280 0 0] CC
(6) show
GR
/Font0 FFSF
0.5437 0.1816 m
GS
[0.0280 0.0000 0.0000 0.0280 0 0] CC
(7) show
GR
n
0.2100 0.2100 m
0.2100 0.5000 l
s
n
0.5500 0.2100 m
0.5500 0.5000 l
s
n
0.2100 0.2229 m
0.2200 0.2229 l
s
n
0.5500 0.2229 m
0.5400 0.2229 l
s
n
0.2100 0.2358 m
0.2200 0.2358 l
s
n
0.5500 0.2358 m
0.5400 0.2358 l
s
n
0.2100 0.2487 m
0.2200 0.2487 l
s
n
0.5500 0.2487 m
0.5400 0.2487 l
s
n
0.2100 0.2616 m
0.2200 0.2616 l
s
n
0.5500 0.2616 m
0.5400 0.2616 l
s
n
0.2100 0.2873 m
0.2200 0.2873 l
s
n
0.5500 0.2873 m
0.5400 0.2873 l
s
n
0.2100 0.3002 m
0.2200 0.3002 l
s
n
0.5500 0.3002 m
0.5400 0.3002 l
s
n
0.2100 0.3131 m
0.2200 0.3131 l
s
n
0.5500 0.3131 m
0.5400 0.3131 l
s
n
0.2100 0.3260 m
0.2200 0.3260 l
s
n
0.5500 0.3260 m
0.5400 0.3260 l
s
n
0.2100 0.3518 m
0.2200 0.3518 l
s
n
0.5500 0.3518 m
0.5400 0.3518 l
s
n
0.2100 0.3647 m
0.2200 0.3647 l
s
n
0.5500 0.3647 m
0.5400 0.3647 l
s
n
0.2100 0.3776 m
0.2200 0.3776 l
s
n
0.5500 0.3776 m
0.5400 0.3776 l
s
n
0.2100 0.3904 m
0.2200 0.3904 l
s
n
0.5500 0.3904 m
0.5400 0.3904 l
s
n
0.2100 0.4162 m
0.2200 0.4162 l
s
n
0.5500 0.4162 m
0.5400 0.4162 l
s
n
0.2100 0.4291 m
0.2200 0.4291 l
s
n
0.5500 0.4291 m
0.5400 0.4291 l
s
n
0.2100 0.4420 m
0.2200 0.4420 l
s
n
0.5500 0.4420 m
0.5400 0.4420 l
s
n
0.2100 0.4549 m
0.2200 0.4549 l
s
n
0.5500 0.4549 m
0.5400 0.4549 l
s
n
0.2100 0.4807 m
0.2200 0.4807 l
s
n
0.5500 0.4807 m
0.5400 0.4807 l
s
n
0.2100 0.4936 m
0.2200 0.4936 l
s
n
0.5500 0.4936 m
0.5400 0.4936 l
s
n
0.2100 0.2100 m
0.2300 0.2100 l
s
n
0.5500 0.2100 m
0.5300 0.2100 l
s
n
0.2100 0.2744 m
0.2300 0.2744 l
s
n
0.5500 0.2744 m
0.5300 0.2744 l
s
n
0.2100 0.3389 m
0.2300 0.3389 l
s
n
0.5500 0.3389 m
0.5300 0.3389 l
s
n
0.2100 0.4033 m
0.2300 0.4033 l
s
n
0.5500 0.4033 m
0.5300 0.4033 l
s
n
0.2100 0.4678 m
0.2300 0.4678 l
s
n
0.5500 0.4678 m
0.5300 0.4678 l
s
/Font0 FFSF
0.1867 0.2008 m
GS
[0.0280 0.0000 0.0000 0.0280 0 0] CC
(0) show
GR
/Font0 FFSF
0.1655 0.2652 m
GS
[0.0280 0.0000 0.0000 0.0280 0 0] CC
(0.2) show
GR
/Font0 FFSF
0.1655 0.3297 m
GS
[0.0280 0.0000 0.0000 0.0280 0 0] CC
(0.4) show
GR
/Font0 FFSF
0.1659 0.3939 m
GS
[0.0280 0.0000 0.0000 0.0280 0 0] CC
(0.6) show
GR
/Font0 FFSF
0.1663 0.4586 m
GS
[0.0280 0.0000 0.0000 0.0280 0 0] CC
(0.8) show
GR
n
0.2100 0.2100 m
0.2100 0.5000 l
0.5500 0.5000 l
0.5500 0.2100 l
0.2100 0.2100 l
c
s
/Helvetica findfont
dup length dict begin
 {1 index /FID ne {def} {pop pop} ifelse} forall
 /Encoding DefEncoding def
 currentdict
end
/Font4 exch definefont pop
/Font4 FFSF
0.5582 0.7392 m
GS
[0.0353 0.0000 0.0000 0.0353 0 0] CC
(Fisher-Tippett) show
GR
/Font4 FFSF
0.5582 0.7000 m
GS
[0.0367 0.0000 0.0000 0.0367 0 0] CC
(distribution) show
GR
%%Trailer
%%BoundingBox: 14 48 527 536
%%DocumentNeededResources: font Times-Roman
%%+ font Times-Italic
%%+ font Helvetica
%%EOF
