graph test {
node [height=0.2,width=0.2,label="",fixedsize=true]
0 -- 275
0 -- 253
0 -- 245
0 -- 229
0 -- 215
0 -- 199
0 -- 184
0 -- 182
0 -- 171
0 -- 166
0 -- 162
0 -- 161
0 -- 151
0 -- 142
0 -- 141
0 -- 128
0 -- 112
0 -- 108
0 -- 107
0 -- 97
0 -- 96
0 -- 92
0 -- 91
0 -- 87
0 -- 78
0 -- 72
0 -- 63
0 -- 52
0 -- 48
0 -- 45
0 -- 43
0 -- 36
0 -- 33
0 -- 23
0 -- 21
0 -- 19
0 -- 12
0 -- 9
0 -- 6
0 -- 4
0 -- 3
0 -- 2
0 -- 1
1 -- 281
1 -- 260
1 -- 258
1 -- 249
1 -- 237
1 -- 214
1 -- 167
1 -- 160
1 -- 44
1 -- 38
1 -- 35
1 -- 27
1 -- 20
1 -- 17
1 -- 15
1 -- 13
1 -- 11
1 -- 10
1 -- 8
1 -- 7
1 -- 5
3 -- 116
3 -- 30
4 -- 250
4 -- 196
4 -- 179
4 -- 159
4 -- 64
5 -- 131
6 -- 278
6 -- 266
6 -- 225
6 -- 193
6 -- 69
6 -- 67
9 -- 183
9 -- 100
9 -- 56
9 -- 51
9 -- 29
9 -- 16
10 -- 254
10 -- 234
10 -- 203
10 -- 83
10 -- 37
11 -- 60
12 -- 294
12 -- 228
12 -- 90
13 -- 174
13 -- 88
13 -- 61
13 -- 50
13 -- 25
13 -- 14
14 -- 280
14 -- 148
14 -- 93
14 -- 18
15 -- 82
15 -- 59
15 -- 39
16 -- 114
18 -- 200
18 -- 120
19 -- 239
19 -- 238
19 -- 68
19 -- 66
19 -- 22
20 -- 270
20 -- 188
20 -- 130
20 -- 65
20 -- 62
20 -- 53
21 -- 257
21 -- 168
21 -- 94
21 -- 55
21 -- 26
22 -- 259
22 -- 227
22 -- 204
22 -- 190
22 -- 176
22 -- 156
22 -- 84
22 -- 71
22 -- 57
22 -- 49
22 -- 46
22 -- 28
22 -- 24
25 -- 289
25 -- 261
25 -- 180
25 -- 170
25 -- 154
25 -- 137
25 -- 134
25 -- 58
25 -- 42
25 -- 32
25 -- 31
27 -- 230
27 -- 219
27 -- 206
27 -- 150
27 -- 132
27 -- 80
27 -- 40
28 -- 272
28 -- 104
28 -- 73
28 -- 41
30 -- 178
30 -- 34
32 -- 295
32 -- 195
32 -- 164
32 -- 81
33 -- 248
36 -- 95
36 -- 70
36 -- 47
38 -- 296
38 -- 269
38 -- 181
38 -- 74
39 -- 293
39 -- 212
44 -- 286
44 -- 99
44 -- 75
45 -- 218
46 -- 276
46 -- 226
46 -- 153
46 -- 124
47 -- 189
47 -- 139
47 -- 54
48 -- 158
50 -- 106
54 -- 282
54 -- 102
55 -- 209
55 -- 198
55 -- 129
56 -- 143
56 -- 76
57 -- 284
57 -- 202
57 -- 127
60 -- 157
61 -- 89
64 -- 233
64 -- 197
64 -- 152
65 -- 155
66 -- 213
67 -- 77
68 -- 267
69 -- 268
69 -- 85
71 -- 135
72 -- 298
74 -- 222
74 -- 121
75 -- 201
75 -- 103
76 -- 109
76 -- 79
77 -- 251
77 -- 98
79 -- 283
79 -- 194
79 -- 118
82 -- 247
82 -- 208
82 -- 133
82 -- 105
82 -- 86
84 -- 192
84 -- 126
84 -- 111
86 -- 173
86 -- 172
86 -- 163
86 -- 101
93 -- 256
93 -- 236
93 -- 220
93 -- 216
93 -- 205
93 -- 169
95 -- 123
95 -- 119
97 -- 232
97 -- 115
98 -- 223
98 -- 113
101 -- 264
101 -- 224
101 -- 144
104 -- 290
104 -- 177
106 -- 243
106 -- 147
106 -- 122
106 -- 110
107 -- 240
110 -- 117
112 -- 146
115 -- 291
118 -- 125
120 -- 187
122 -- 136
124 -- 221
126 -- 185
127 -- 271
127 -- 149
130 -- 210
130 -- 165
130 -- 145
130 -- 140
130 -- 138
138 -- 273
138 -- 235
138 -- 191
140 -- 287
143 -- 175
151 -- 186
154 -- 207
169 -- 246
172 -- 263
180 -- 265
180 -- 211
185 -- 285
187 -- 288
195 -- 299
207 -- 262
210 -- 244
211 -- 292
211 -- 231
215 -- 217
218 -- 252
220 -- 297
223 -- 242
223 -- 241
226 -- 255
235 -- 274
259 -- 279
267 -- 277
}
graph test {
node [height=0.2,width=0.2,label="",fixedsize=true]
0 -- 275
0 -- 253
0 -- 245
0 -- 229
0 -- 215
0 -- 199
0 -- 184
0 -- 182
0 -- 171
0 -- 166
0 -- 162
0 -- 161
0 -- 151
0 -- 142
0 -- 141
0 -- 128
0 -- 112
0 -- 108
0 -- 107
0 -- 97
0 -- 96
0 -- 92
0 -- 91
0 -- 87
0 -- 78
0 -- 72
0 -- 63
0 -- 52
0 -- 48
0 -- 45
0 -- 43
0 -- 36
0 -- 33
0 -- 23
0 -- 21
0 -- 19
0 -- 12
0 -- 9
0 -- 6
0 -- 4
0 -- 3
0 -- 2
0 -- 1
1 -- 281
1 -- 260
1 -- 258
1 -- 249
1 -- 237
1 -- 214
1 -- 167
1 -- 160
1 -- 44
1 -- 38
1 -- 35
1 -- 27
1 -- 20
1 -- 17
1 -- 15
1 -- 13
1 -- 11
1 -- 10
1 -- 8
1 -- 7
1 -- 5
3 -- 116
3 -- 30
4 -- 250
4 -- 196
4 -- 179
4 -- 159
4 -- 64
5 -- 131
6 -- 278
6 -- 266
6 -- 225
6 -- 193
6 -- 69
6 -- 67
9 -- 183
9 -- 100
9 -- 56
9 -- 51
9 -- 29
9 -- 16
10 -- 254
10 -- 234
10 -- 203
10 -- 83
10 -- 37
11 -- 60
12 -- 294
12 -- 228
12 -- 90
13 -- 174
13 -- 88
13 -- 61
13 -- 50
13 -- 25
13 -- 14
14 -- 280
14 -- 148
14 -- 93
14 -- 18
15 -- 82
15 -- 59
15 -- 39
16 -- 114
18 -- 200
18 -- 120
19 -- 239
19 -- 238
19 -- 68
19 -- 66
19 -- 22
20 -- 270
20 -- 188
20 -- 130
20 -- 65
20 -- 62
20 -- 53
21 -- 257
21 -- 168
21 -- 94
21 -- 55
21 -- 26
22 -- 259
22 -- 227
22 -- 204
22 -- 190
22 -- 176
22 -- 156
22 -- 84
22 -- 71
22 -- 57
22 -- 49
22 -- 46
22 -- 28
22 -- 24
25 -- 289
25 -- 261
25 -- 180
25 -- 170
25 -- 154
25 -- 137
25 -- 134
25 -- 58
25 -- 42
25 -- 32
25 -- 31
27 -- 230
27 -- 219
27 -- 206
27 -- 150
27 -- 132
27 -- 80
27 -- 40
28 -- 272
28 -- 104
28 -- 73
28 -- 41
30 -- 178
30 -- 34
32 -- 295
32 -- 195
32 -- 164
32 -- 81
33 -- 248
36 -- 95
36 -- 70
36 -- 47
38 -- 296
38 -- 269
38 -- 181
38 -- 74
39 -- 293
39 -- 212
44 -- 286
44 -- 99
44 -- 75
45 -- 218
46 -- 276
46 -- 226
46 -- 153
46 -- 124
47 -- 189
47 -- 139
47 -- 54
48 -- 158
50 -- 106
54 -- 282
54 -- 102
55 -- 209
55 -- 198
55 -- 129
56 -- 143
56 -- 76
57 -- 284
57 -- 202
57 -- 127
60 -- 157
61 -- 89
64 -- 233
64 -- 197
64 -- 152
65 -- 155
66 -- 213
67 -- 77
68 -- 267
69 -- 268
69 -- 85
71 -- 135
72 -- 298
74 -- 222
74 -- 121
75 -- 201
75 -- 103
76 -- 109
76 -- 79
77 -- 251
77 -- 98
79 -- 283
79 -- 194
79 -- 118
82 -- 247
82 -- 208
82 -- 133
82 -- 105
82 -- 86
84 -- 192
84 -- 126
84 -- 111
86 -- 173
86 -- 172
86 -- 163
86 -- 101
93 -- 256
93 -- 236
93 -- 220
93 -- 216
93 -- 205
93 -- 169
95 -- 123
95 -- 119
97 -- 232
97 -- 115
98 -- 223
98 -- 113
101 -- 264
101 -- 224
101 -- 144
104 -- 290
104 -- 177
106 -- 243
106 -- 147
106 -- 122
106 -- 110
107 -- 240
110 -- 117
112 -- 146
115 -- 291
118 -- 125
120 -- 187
122 -- 136
124 -- 221
126 -- 185
127 -- 271
127 -- 149
130 -- 210
130 -- 165
130 -- 145
130 -- 140
130 -- 138
138 -- 273
138 -- 235
138 -- 191
140 -- 287
143 -- 175
151 -- 186
154 -- 207
169 -- 246
172 -- 263
180 -- 265
180 -- 211
185 -- 285
187 -- 288
195 -- 299
207 -- 262
210 -- 244
211 -- 292
211 -- 231
215 -- 217
218 -- 252
220 -- 297
223 -- 242
223 -- 241
226 -- 255
235 -- 274
259 -- 279
267 -- 277
}
