%!PS-Adobe-2.0
%%Creator: Graphviz version 2.16.1 (Thu Dec 13 09:00:54 UTC 2007)
%%For: (hartmann) Prof. Dr. Alexander Hartmann
%%Title: test
%%Pages: (atend)
%%BoundingBox: (atend)
%%EndComments
save
%%BeginProlog
/DotDict 200 dict def
DotDict begin

/setupLatin1 {
mark
/EncodingVector 256 array def
 EncodingVector 0

ISOLatin1Encoding 0 255 getinterval putinterval
EncodingVector 45 /hyphen put

% Set up ISO Latin 1 character encoding
/starnetISO {
        dup dup findfont dup length dict begin
        { 1 index /FID ne { def }{ pop pop } ifelse
        } forall
        /Encoding EncodingVector def
        currentdict end definefont
} def
/Times-Roman starnetISO def
/Times-Italic starnetISO def
/Times-Bold starnetISO def
/Times-BoldItalic starnetISO def
/Helvetica starnetISO def
/Helvetica-Oblique starnetISO def
/Helvetica-Bold starnetISO def
/Helvetica-BoldOblique starnetISO def
/Courier starnetISO def
/Courier-Oblique starnetISO def
/Courier-Bold starnetISO def
/Courier-BoldOblique starnetISO def
cleartomark
} bind def

%%BeginResource: procset graphviz 0 0
/coord-font-family /Times-Roman def
/default-font-family /Times-Roman def
/coordfont coord-font-family findfont 8 scalefont def

/InvScaleFactor 1.0 def
/set_scale {
       dup 1 exch div /InvScaleFactor exch def
       scale
} bind def

% styles
/solid { [] 0 setdash } bind def
/dashed { [9 InvScaleFactor mul dup ] 0 setdash } bind def
/dotted { [1 InvScaleFactor mul 6 InvScaleFactor mul] 0 setdash } bind def
/invis {/fill {newpath} def /stroke {newpath} def /show {pop newpath} def} bind def
/bold { 2 setlinewidth } bind def
/filled { } bind def
/unfilled { } bind def
/rounded { } bind def
/diagonals { } bind def

% hooks for setting color 
/nodecolor { sethsbcolor } bind def
/edgecolor { sethsbcolor } bind def
/graphcolor { sethsbcolor } bind def
/nopcolor {pop pop pop} bind def

/beginpage {	% i j npages
	/npages exch def
	/j exch def
	/i exch def
	/str 10 string def
	npages 1 gt {
		gsave
			coordfont setfont
			0 0 moveto
			(\() show i str cvs show (,) show j str cvs show (\)) show
		grestore
	} if
} bind def

/set_font {
	findfont exch
	scalefont setfont
} def

% draw text fitted to its expected width
/alignedtext {			% width text
	/text exch def
	/width exch def
	gsave
		width 0 gt {
			[] 0 setdash
			text stringwidth pop width exch sub text length div 0 text ashow
		} if
	grestore
} def

/boxprim {				% xcorner ycorner xsize ysize
		4 2 roll
		moveto
		2 copy
		exch 0 rlineto
		0 exch rlineto
		pop neg 0 rlineto
		closepath
} bind def

/ellipse_path {
	/ry exch def
	/rx exch def
	/y exch def
	/x exch def
	matrix currentmatrix
	newpath
	x y translate
	rx ry scale
	0 0 1 0 360 arc
	setmatrix
} bind def

/endpage { showpage } bind def
/showpage { } def

/layercolorseq
	[	% layer color sequence - darkest to lightest
		[0 0 0]
		[.2 .8 .8]
		[.4 .8 .8]
		[.6 .8 .8]
		[.8 .8 .8]
	]
def

/layerlen layercolorseq length def

/setlayer {/maxlayer exch def /curlayer exch def
	layercolorseq curlayer 1 sub layerlen mod get
	aload pop sethsbcolor
	/nodecolor {nopcolor} def
	/edgecolor {nopcolor} def
	/graphcolor {nopcolor} def
} bind def

/onlayer { curlayer ne {invis} if } def

/onlayers {
	/myupper exch def
	/mylower exch def
	curlayer mylower lt
	curlayer myupper gt
	or
	{invis} if
} def

/curlayer 0 def

%%EndResource
%%EndProlog
%%BeginSetup
14 default-font-family set_font
1 setmiterlimit
% /arrowlength 10 def
% /arrowwidth 5 def

% make sure pdfmark is harmless for PS-interpreters other than Distiller
/pdfmark where {pop} {userdict /pdfmark /cleartomark load put} ifelse
% make '<<' and '>>' safe on PS Level 1 devices
/languagelevel where {pop languagelevel}{1} ifelse
2 lt {
    userdict (<<) cvn ([) cvn load put
    userdict (>>) cvn ([) cvn load put
} if

%%EndSetup
setupLatin1
%%Page: 1 1
%%PageBoundingBox: 36 36 1474 308
%%PageOrientation: Portrait
0 0 1 beginpage
gsave
36 36 1438 272 boxprim clip newpath
1 1 set_scale 0 rotate 40 40 translate
% 0
gsave
1 setlinewidth
0.000 0.000 0.000 nodecolor
375 257 7 7 ellipse_path stroke
grestore
% 97
gsave
1 setlinewidth
0.000 0.000 0.000 nodecolor
7 207 7 7 ellipse_path stroke
grestore
% 0--97
gsave
1 setlinewidth
0.000 0.000 0.000 edgecolor
newpath 368 257 moveto
331 256 159 250 23 214 curveto
20 213 16 211 14 210 curveto
stroke
grestore
% 96
gsave
1 setlinewidth
0.000 0.000 0.000 nodecolor
39 207 7 7 ellipse_path stroke
grestore
% 0--96
gsave
1 setlinewidth
0.000 0.000 0.000 edgecolor
newpath 368 257 moveto
333 255 178 248 55 214 curveto
52 213 48 211 46 210 curveto
stroke
grestore
% 92
gsave
1 setlinewidth
0.000 0.000 0.000 nodecolor
71 207 7 7 ellipse_path stroke
grestore
% 0--92
gsave
1 setlinewidth
0.000 0.000 0.000 edgecolor
newpath 368 257 moveto
335 255 196 245 87 214 curveto
84 213 80 211 78 210 curveto
stroke
grestore
% 91
gsave
1 setlinewidth
0.000 0.000 0.000 nodecolor
103 207 7 7 ellipse_path stroke
grestore
% 0--91
gsave
1 setlinewidth
0.000 0.000 0.000 edgecolor
newpath 368 256 moveto
337 254 215 242 119 214 curveto
116 213 112 211 110 210 curveto
stroke
grestore
% 87
gsave
1 setlinewidth
0.000 0.000 0.000 nodecolor
135 207 7 7 ellipse_path stroke
grestore
% 0--87
gsave
1 setlinewidth
0.000 0.000 0.000 edgecolor
newpath 368 256 moveto
340 253 234 240 151 214 curveto
148 213 144 211 142 210 curveto
stroke
grestore
% 78
gsave
1 setlinewidth
0.000 0.000 0.000 nodecolor
167 207 7 7 ellipse_path stroke
grestore
% 0--78
gsave
1 setlinewidth
0.000 0.000 0.000 edgecolor
newpath 368 256 moveto
343 252 254 237 183 214 curveto
180 213 176 211 174 210 curveto
stroke
grestore
% 72
gsave
1 setlinewidth
0.000 0.000 0.000 nodecolor
199 207 7 7 ellipse_path stroke
grestore
% 0--72
gsave
1 setlinewidth
0.000 0.000 0.000 edgecolor
newpath 368 255 moveto
345 250 273 234 215 214 curveto
212 213 208 211 206 210 curveto
stroke
grestore
% 63
gsave
1 setlinewidth
0.000 0.000 0.000 nodecolor
231 207 7 7 ellipse_path stroke
grestore
% 0--63
gsave
1 setlinewidth
0.000 0.000 0.000 edgecolor
newpath 368 255 moveto
349 249 293 231 247 214 curveto
244 213 240 211 238 210 curveto
stroke
grestore
% 52
gsave
1 setlinewidth
0.000 0.000 0.000 nodecolor
263 207 7 7 ellipse_path stroke
grestore
% 0--52
gsave
1 setlinewidth
0.000 0.000 0.000 edgecolor
newpath 368 254 moveto
348 245 289 219 269 210 curveto
stroke
grestore
% 48
gsave
1 setlinewidth
0.000 0.000 0.000 nodecolor
295 207 7 7 ellipse_path stroke
grestore
% 0--48
gsave
1 setlinewidth
0.000 0.000 0.000 edgecolor
newpath 369 253 moveto
354 244 316 220 301 211 curveto
stroke
grestore
% 45
gsave
1 setlinewidth
0.000 0.000 0.000 nodecolor
327 207 7 7 ellipse_path stroke
grestore
% 0--45
gsave
1 setlinewidth
0.000 0.000 0.000 edgecolor
newpath 370 252 moveto
360 242 341 222 332 212 curveto
stroke
grestore
% 43
gsave
1 setlinewidth
0.000 0.000 0.000 nodecolor
359 207 7 7 ellipse_path stroke
grestore
% 0--43
gsave
1 setlinewidth
0.000 0.000 0.000 edgecolor
newpath 373 250 moveto
370 240 364 223 361 214 curveto
stroke
grestore
% 36
gsave
1 setlinewidth
0.000 0.000 0.000 nodecolor
391 207 7 7 ellipse_path stroke
grestore
% 0--36
gsave
1 setlinewidth
0.000 0.000 0.000 edgecolor
newpath 377 250 moveto
380 240 386 223 389 214 curveto
stroke
grestore
% 33
gsave
1 setlinewidth
0.000 0.000 0.000 nodecolor
423 207 7 7 ellipse_path stroke
grestore
% 0--33
gsave
1 setlinewidth
0.000 0.000 0.000 edgecolor
newpath 380 252 moveto
390 242 409 222 418 212 curveto
stroke
grestore
% 23
gsave
1 setlinewidth
0.000 0.000 0.000 nodecolor
455 207 7 7 ellipse_path stroke
grestore
% 0--23
gsave
1 setlinewidth
0.000 0.000 0.000 edgecolor
newpath 381 253 moveto
396 244 434 220 449 211 curveto
stroke
grestore
% 21
gsave
1 setlinewidth
0.000 0.000 0.000 nodecolor
487 207 7 7 ellipse_path stroke
grestore
% 0--21
gsave
1 setlinewidth
0.000 0.000 0.000 edgecolor
newpath 382 254 moveto
402 245 461 219 481 210 curveto
stroke
grestore
% 19
gsave
1 setlinewidth
0.000 0.000 0.000 nodecolor
519 207 7 7 ellipse_path stroke
grestore
% 0--19
gsave
1 setlinewidth
0.000 0.000 0.000 edgecolor
newpath 382 255 moveto
401 249 458 231 503 214 curveto
506 213 510 211 513 210 curveto
stroke
grestore
% 12
gsave
1 setlinewidth
0.000 0.000 0.000 nodecolor
559 207 7 7 ellipse_path stroke
grestore
% 0--12
gsave
1 setlinewidth
0.000 0.000 0.000 edgecolor
newpath 382 255 moveto
404 249 476 230 535 214 curveto
541 212 547 211 552 209 curveto
stroke
grestore
% 9
gsave
1 setlinewidth
0.000 0.000 0.000 nodecolor
639 207 7 7 ellipse_path stroke
grestore
% 0--9
gsave
1 setlinewidth
0.000 0.000 0.000 edgecolor
newpath 382 256 moveto
419 249 594 216 632 208 curveto
stroke
grestore
% 6
gsave
1 setlinewidth
0.000 0.000 0.000 nodecolor
703 207 7 7 ellipse_path stroke
grestore
% 0--6
gsave
1 setlinewidth
0.000 0.000 0.000 edgecolor
newpath 382 256 moveto
425 250 653 215 696 208 curveto
stroke
grestore
% 4
gsave
1 setlinewidth
0.000 0.000 0.000 nodecolor
735 207 7 7 ellipse_path stroke
grestore
% 0--4
gsave
1 setlinewidth
0.000 0.000 0.000 edgecolor
newpath 382 257 moveto
419 256 588 249 719 214 curveto
722 213 726 211 729 210 curveto
stroke
grestore
% 3
gsave
1 setlinewidth
0.000 0.000 0.000 nodecolor
767 207 7 7 ellipse_path stroke
grestore
% 0--3
gsave
1 setlinewidth
0.000 0.000 0.000 edgecolor
newpath 382 256 moveto
427 253 677 233 751 214 curveto
754 213 758 211 761 210 curveto
stroke
grestore
% 2
gsave
1 setlinewidth
0.000 0.000 0.000 nodecolor
799 207 7 7 ellipse_path stroke
grestore
% 0--2
gsave
1 setlinewidth
0.000 0.000 0.000 edgecolor
newpath 382 257 moveto
429 253 703 235 783 214 curveto
786 213 790 212 793 210 curveto
stroke
grestore
% 1
gsave
1 setlinewidth
0.000 0.000 0.000 nodecolor
1119 207 7 7 ellipse_path stroke
grestore
% 0--1
gsave
1 setlinewidth
0.000 0.000 0.000 edgecolor
newpath 382 257 moveto
455 251 1039 212 1112 207 curveto
stroke
grestore
% 95
gsave
1 setlinewidth
0.000 0.000 0.000 nodecolor
287 157 7 7 ellipse_path stroke
grestore
% 36--95
gsave
1 setlinewidth
0.000 0.000 0.000 edgecolor
newpath 384 204 moveto
366 195 312 169 294 160 curveto
stroke
grestore
% 70
gsave
1 setlinewidth
0.000 0.000 0.000 nodecolor
319 157 7 7 ellipse_path stroke
grestore
% 36--70
gsave
1 setlinewidth
0.000 0.000 0.000 edgecolor
newpath 385 203 moveto
371 194 339 171 325 161 curveto
stroke
grestore
% 47
gsave
1 setlinewidth
0.000 0.000 0.000 nodecolor
351 157 7 7 ellipse_path stroke
grestore
% 36--47
gsave
1 setlinewidth
0.000 0.000 0.000 edgecolor
newpath 386 201 moveto
379 191 363 172 356 163 curveto
stroke
grestore
% 94
gsave
1 setlinewidth
0.000 0.000 0.000 nodecolor
383 157 7 7 ellipse_path stroke
grestore
% 21--94
gsave
1 setlinewidth
0.000 0.000 0.000 edgecolor
newpath 480 204 moveto
462 195 408 169 390 160 curveto
stroke
grestore
% 55
gsave
1 setlinewidth
0.000 0.000 0.000 nodecolor
415 157 7 7 ellipse_path stroke
grestore
% 21--55
gsave
1 setlinewidth
0.000 0.000 0.000 edgecolor
newpath 481 203 moveto
467 194 435 171 421 161 curveto
stroke
grestore
% 26
gsave
1 setlinewidth
0.000 0.000 0.000 nodecolor
447 157 7 7 ellipse_path stroke
grestore
% 21--26
gsave
1 setlinewidth
0.000 0.000 0.000 edgecolor
newpath 482 201 moveto
475 191 459 172 452 163 curveto
stroke
grestore
% 68
gsave
1 setlinewidth
0.000 0.000 0.000 nodecolor
479 157 7 7 ellipse_path stroke
grestore
% 19--68
gsave
1 setlinewidth
0.000 0.000 0.000 edgecolor
newpath 514 201 moveto
507 191 491 172 484 163 curveto
stroke
grestore
% 66
gsave
1 setlinewidth
0.000 0.000 0.000 nodecolor
511 157 7 7 ellipse_path stroke
grestore
% 19--66
gsave
1 setlinewidth
0.000 0.000 0.000 edgecolor
newpath 518 200 moveto
517 190 514 174 512 164 curveto
stroke
grestore
% 22
gsave
1 setlinewidth
0.000 0.000 0.000 nodecolor
543 157 7 7 ellipse_path stroke
grestore
% 19--22
gsave
1 setlinewidth
0.000 0.000 0.000 edgecolor
newpath 522 200 moveto
527 191 535 173 540 163 curveto
stroke
grestore
% 90
gsave
1 setlinewidth
0.000 0.000 0.000 nodecolor
575 157 7 7 ellipse_path stroke
grestore
% 12--90
gsave
1 setlinewidth
0.000 0.000 0.000 edgecolor
newpath 561 200 moveto
564 190 570 173 573 164 curveto
stroke
grestore
% 56
gsave
1 setlinewidth
0.000 0.000 0.000 nodecolor
607 157 7 7 ellipse_path stroke
grestore
% 9--56
gsave
1 setlinewidth
0.000 0.000 0.000 edgecolor
newpath 635 201 moveto
629 192 617 173 611 163 curveto
stroke
grestore
% 51
gsave
1 setlinewidth
0.000 0.000 0.000 nodecolor
639 157 7 7 ellipse_path stroke
grestore
% 9--51
gsave
1 setlinewidth
0.000 0.000 0.000 edgecolor
newpath 639 200 moveto
639 190 639 174 639 164 curveto
stroke
grestore
% 29
gsave
1 setlinewidth
0.000 0.000 0.000 nodecolor
671 157 7 7 ellipse_path stroke
grestore
% 9--29
gsave
1 setlinewidth
0.000 0.000 0.000 edgecolor
newpath 643 201 moveto
649 192 661 173 667 163 curveto
stroke
grestore
% 16
gsave
1 setlinewidth
0.000 0.000 0.000 nodecolor
703 157 7 7 ellipse_path stroke
grestore
% 9--16
gsave
1 setlinewidth
0.000 0.000 0.000 edgecolor
newpath 645 202 moveto
657 193 685 171 697 161 curveto
stroke
grestore
% 69
gsave
1 setlinewidth
0.000 0.000 0.000 nodecolor
735 157 7 7 ellipse_path stroke
grestore
% 6--69
gsave
1 setlinewidth
0.000 0.000 0.000 edgecolor
newpath 707 201 moveto
713 192 725 173 731 163 curveto
stroke
grestore
% 67
gsave
1 setlinewidth
0.000 0.000 0.000 nodecolor
767 157 7 7 ellipse_path stroke
grestore
% 6--67
gsave
1 setlinewidth
0.000 0.000 0.000 edgecolor
newpath 709 202 moveto
721 193 749 171 761 161 curveto
stroke
grestore
% 64
gsave
1 setlinewidth
0.000 0.000 0.000 nodecolor
799 157 7 7 ellipse_path stroke
grestore
% 4--64
gsave
1 setlinewidth
0.000 0.000 0.000 edgecolor
newpath 741 202 moveto
753 193 781 171 793 161 curveto
stroke
grestore
% 30
gsave
1 setlinewidth
0.000 0.000 0.000 nodecolor
831 157 7 7 ellipse_path stroke
grestore
% 3--30
gsave
1 setlinewidth
0.000 0.000 0.000 edgecolor
newpath 773 202 moveto
785 193 813 171 825 161 curveto
stroke
grestore
% 44
gsave
1 setlinewidth
0.000 0.000 0.000 nodecolor
879 157 7 7 ellipse_path stroke
grestore
% 1--44
gsave
1 setlinewidth
0.000 0.000 0.000 edgecolor
newpath 1112 206 moveto
1085 201 987 182 907 164 curveto
900 162 892 160 886 159 curveto
stroke
grestore
% 38
gsave
1 setlinewidth
0.000 0.000 0.000 nodecolor
923 157 7 7 ellipse_path stroke
grestore
% 1--38
gsave
1 setlinewidth
0.000 0.000 0.000 edgecolor
newpath 1112 205 moveto
1082 197 961 167 930 159 curveto
stroke
grestore
% 35
gsave
1 setlinewidth
0.000 0.000 0.000 nodecolor
979 157 7 7 ellipse_path stroke
grestore
% 1--35
gsave
1 setlinewidth
0.000 0.000 0.000 edgecolor
newpath 1112 205 moveto
1093 199 1039 181 995 164 curveto
992 163 988 161 985 160 curveto
stroke
grestore
% 27
gsave
1 setlinewidth
0.000 0.000 0.000 nodecolor
1011 157 7 7 ellipse_path stroke
grestore
% 1--27
gsave
1 setlinewidth
0.000 0.000 0.000 edgecolor
newpath 1113 204 moveto
1093 195 1037 169 1018 160 curveto
stroke
grestore
% 20
gsave
1 setlinewidth
0.000 0.000 0.000 nodecolor
1055 157 7 7 ellipse_path stroke
grestore
% 1--20
gsave
1 setlinewidth
0.000 0.000 0.000 edgecolor
newpath 1113 202 moveto
1101 193 1073 171 1061 161 curveto
stroke
grestore
% 17
gsave
1 setlinewidth
0.000 0.000 0.000 nodecolor
1103 157 7 7 ellipse_path stroke
grestore
% 1--17
gsave
1 setlinewidth
0.000 0.000 0.000 edgecolor
newpath 1117 200 moveto
1114 190 1108 173 1105 164 curveto
stroke
grestore
% 15
gsave
1 setlinewidth
0.000 0.000 0.000 nodecolor
1135 157 7 7 ellipse_path stroke
grestore
% 1--15
gsave
1 setlinewidth
0.000 0.000 0.000 edgecolor
newpath 1121 200 moveto
1124 190 1130 173 1133 164 curveto
stroke
grestore
% 13
gsave
1 setlinewidth
0.000 0.000 0.000 nodecolor
1215 157 7 7 ellipse_path stroke
grestore
% 1--13
gsave
1 setlinewidth
0.000 0.000 0.000 edgecolor
newpath 1125 204 moveto
1143 195 1191 170 1209 160 curveto
stroke
grestore
% 11
gsave
1 setlinewidth
0.000 0.000 0.000 nodecolor
1247 157 7 7 ellipse_path stroke
grestore
% 1--11
gsave
1 setlinewidth
0.000 0.000 0.000 edgecolor
newpath 1126 204 moveto
1143 198 1191 180 1231 164 curveto
1234 163 1238 161 1240 160 curveto
stroke
grestore
% 10
gsave
1 setlinewidth
0.000 0.000 0.000 nodecolor
1279 157 7 7 ellipse_path stroke
grestore
% 1--10
gsave
1 setlinewidth
0.000 0.000 0.000 edgecolor
newpath 1126 205 moveto
1147 200 1211 182 1263 164 curveto
1266 163 1270 161 1272 160 curveto
stroke
grestore
% 8
gsave
1 setlinewidth
0.000 0.000 0.000 nodecolor
1311 157 7 7 ellipse_path stroke
grestore
% 1--8
gsave
1 setlinewidth
0.000 0.000 0.000 edgecolor
newpath 1126 206 moveto
1150 201 1230 185 1295 164 curveto
1298 163 1302 161 1304 160 curveto
stroke
grestore
% 7
gsave
1 setlinewidth
0.000 0.000 0.000 nodecolor
1343 157 7 7 ellipse_path stroke
grestore
% 1--7
gsave
1 setlinewidth
0.000 0.000 0.000 edgecolor
newpath 1126 206 moveto
1153 202 1250 188 1327 164 curveto
1330 163 1334 161 1336 160 curveto
stroke
grestore
% 5
gsave
1 setlinewidth
0.000 0.000 0.000 nodecolor
1375 157 7 7 ellipse_path stroke
grestore
% 1--5
gsave
1 setlinewidth
0.000 0.000 0.000 edgecolor
newpath 1126 206 moveto
1156 203 1269 191 1359 164 curveto
1362 163 1366 161 1368 160 curveto
stroke
grestore
% 99
gsave
1 setlinewidth
0.000 0.000 0.000 nodecolor
847 107 7 7 ellipse_path stroke
grestore
% 44--99
gsave
1 setlinewidth
0.000 0.000 0.000 edgecolor
newpath 875 151 moveto
869 142 857 123 851 113 curveto
stroke
grestore
% 75
gsave
1 setlinewidth
0.000 0.000 0.000 nodecolor
879 107 7 7 ellipse_path stroke
grestore
% 44--75
gsave
1 setlinewidth
0.000 0.000 0.000 edgecolor
newpath 879 150 moveto
879 140 879 124 879 114 curveto
stroke
grestore
% 74
gsave
1 setlinewidth
0.000 0.000 0.000 nodecolor
911 107 7 7 ellipse_path stroke
grestore
% 38--74
gsave
1 setlinewidth
0.000 0.000 0.000 edgecolor
newpath 921 150 moveto
919 140 915 123 913 114 curveto
stroke
grestore
% 80
gsave
1 setlinewidth
0.000 0.000 0.000 nodecolor
943 107 7 7 ellipse_path stroke
grestore
% 27--80
gsave
1 setlinewidth
0.000 0.000 0.000 edgecolor
newpath 1005 153 moveto
993 144 962 121 949 111 curveto
stroke
grestore
% 40
gsave
1 setlinewidth
0.000 0.000 0.000 nodecolor
975 107 7 7 ellipse_path stroke
grestore
% 27--40
gsave
1 setlinewidth
0.000 0.000 0.000 edgecolor
newpath 1007 151 moveto
1000 142 986 123 979 113 curveto
stroke
grestore
% 65
gsave
1 setlinewidth
0.000 0.000 0.000 nodecolor
1007 107 7 7 ellipse_path stroke
grestore
% 20--65
gsave
1 setlinewidth
0.000 0.000 0.000 edgecolor
newpath 1050 152 moveto
1040 142 1021 122 1012 112 curveto
stroke
grestore
% 62
gsave
1 setlinewidth
0.000 0.000 0.000 nodecolor
1039 107 7 7 ellipse_path stroke
grestore
% 20--62
gsave
1 setlinewidth
0.000 0.000 0.000 edgecolor
newpath 1053 150 moveto
1050 140 1044 123 1041 114 curveto
stroke
grestore
% 53
gsave
1 setlinewidth
0.000 0.000 0.000 nodecolor
1071 107 7 7 ellipse_path stroke
grestore
% 20--53
gsave
1 setlinewidth
0.000 0.000 0.000 edgecolor
newpath 1057 150 moveto
1060 140 1066 123 1069 114 curveto
stroke
grestore
% 82
gsave
1 setlinewidth
0.000 0.000 0.000 nodecolor
1103 107 7 7 ellipse_path stroke
grestore
% 15--82
gsave
1 setlinewidth
0.000 0.000 0.000 edgecolor
newpath 1131 151 moveto
1125 142 1113 123 1107 113 curveto
stroke
grestore
% 59
gsave
1 setlinewidth
0.000 0.000 0.000 nodecolor
1135 107 7 7 ellipse_path stroke
grestore
% 15--59
gsave
1 setlinewidth
0.000 0.000 0.000 edgecolor
newpath 1135 150 moveto
1135 140 1135 124 1135 114 curveto
stroke
grestore
% 39
gsave
1 setlinewidth
0.000 0.000 0.000 nodecolor
1167 107 7 7 ellipse_path stroke
grestore
% 15--39
gsave
1 setlinewidth
0.000 0.000 0.000 edgecolor
newpath 1139 151 moveto
1145 142 1157 123 1163 113 curveto
stroke
grestore
% 88
gsave
1 setlinewidth
0.000 0.000 0.000 nodecolor
1199 107 7 7 ellipse_path stroke
grestore
% 13--88
gsave
1 setlinewidth
0.000 0.000 0.000 edgecolor
newpath 1213 150 moveto
1210 140 1204 123 1201 114 curveto
stroke
grestore
% 61
gsave
1 setlinewidth
0.000 0.000 0.000 nodecolor
1231 107 7 7 ellipse_path stroke
grestore
% 13--61
gsave
1 setlinewidth
0.000 0.000 0.000 edgecolor
newpath 1217 150 moveto
1220 140 1226 123 1229 114 curveto
stroke
grestore
% 50
gsave
1 setlinewidth
0.000 0.000 0.000 nodecolor
1263 107 7 7 ellipse_path stroke
grestore
% 13--50
gsave
1 setlinewidth
0.000 0.000 0.000 edgecolor
newpath 1220 152 moveto
1230 142 1249 122 1258 112 curveto
stroke
grestore
% 25
gsave
1 setlinewidth
0.000 0.000 0.000 nodecolor
1295 107 7 7 ellipse_path stroke
grestore
% 13--25
gsave
1 setlinewidth
0.000 0.000 0.000 edgecolor
newpath 1221 153 moveto
1236 144 1274 120 1289 111 curveto
stroke
grestore
% 14
gsave
1 setlinewidth
0.000 0.000 0.000 nodecolor
1327 107 7 7 ellipse_path stroke
grestore
% 13--14
gsave
1 setlinewidth
0.000 0.000 0.000 edgecolor
newpath 1222 154 moveto
1242 145 1301 119 1321 110 curveto
stroke
grestore
% 60
gsave
1 setlinewidth
0.000 0.000 0.000 nodecolor
1359 107 7 7 ellipse_path stroke
grestore
% 11--60
gsave
1 setlinewidth
0.000 0.000 0.000 edgecolor
newpath 1254 154 moveto
1274 145 1333 119 1353 110 curveto
stroke
grestore
% 83
gsave
1 setlinewidth
0.000 0.000 0.000 nodecolor
1391 107 7 7 ellipse_path stroke
grestore
% 10--83
gsave
1 setlinewidth
0.000 0.000 0.000 edgecolor
newpath 1286 154 moveto
1306 145 1365 119 1385 110 curveto
stroke
grestore
% 37
gsave
1 setlinewidth
0.000 0.000 0.000 nodecolor
1423 107 7 7 ellipse_path stroke
grestore
% 10--37
gsave
1 setlinewidth
0.000 0.000 0.000 edgecolor
newpath 1285 154 moveto
1288 152 1292 151 1295 150 curveto
1343 131 1358 132 1407 114 curveto
1410 113 1414 111 1416 110 curveto
stroke
grestore
% 34
gsave
1 setlinewidth
0.000 0.000 0.000 nodecolor
815 107 7 7 ellipse_path stroke
grestore
% 30--34
gsave
1 setlinewidth
0.000 0.000 0.000 edgecolor
newpath 829 150 moveto
826 140 820 123 817 114 curveto
stroke
grestore
% 85
gsave
1 setlinewidth
0.000 0.000 0.000 nodecolor
735 107 7 7 ellipse_path stroke
grestore
% 69--85
gsave
1 setlinewidth
0.000 0.000 0.000 edgecolor
newpath 735 150 moveto
735 140 735 124 735 114 curveto
stroke
grestore
% 77
gsave
1 setlinewidth
0.000 0.000 0.000 nodecolor
767 107 7 7 ellipse_path stroke
grestore
% 67--77
gsave
1 setlinewidth
0.000 0.000 0.000 edgecolor
newpath 767 150 moveto
767 140 767 124 767 114 curveto
stroke
grestore
% 76
gsave
1 setlinewidth
0.000 0.000 0.000 nodecolor
655 107 7 7 ellipse_path stroke
grestore
% 56--76
gsave
1 setlinewidth
0.000 0.000 0.000 edgecolor
newpath 612 152 moveto
622 142 641 122 650 112 curveto
stroke
grestore
% 89
gsave
1 setlinewidth
0.000 0.000 0.000 nodecolor
1199 57 7 7 ellipse_path stroke
grestore
% 61--89
gsave
1 setlinewidth
0.000 0.000 0.000 edgecolor
newpath 1227 101 moveto
1221 92 1209 73 1203 63 curveto
stroke
grestore
% 58
gsave
1 setlinewidth
0.000 0.000 0.000 nodecolor
1231 57 7 7 ellipse_path stroke
grestore
% 25--58
gsave
1 setlinewidth
0.000 0.000 0.000 edgecolor
newpath 1289 102 moveto
1277 93 1249 71 1237 61 curveto
stroke
grestore
% 42
gsave
1 setlinewidth
0.000 0.000 0.000 nodecolor
1263 57 7 7 ellipse_path stroke
grestore
% 25--42
gsave
1 setlinewidth
0.000 0.000 0.000 edgecolor
newpath 1291 101 moveto
1285 92 1273 73 1267 63 curveto
stroke
grestore
% 32
gsave
1 setlinewidth
0.000 0.000 0.000 nodecolor
1295 57 7 7 ellipse_path stroke
grestore
% 25--32
gsave
1 setlinewidth
0.000 0.000 0.000 edgecolor
newpath 1295 100 moveto
1295 90 1295 74 1295 64 curveto
stroke
grestore
% 31
gsave
1 setlinewidth
0.000 0.000 0.000 nodecolor
1327 57 7 7 ellipse_path stroke
grestore
% 25--31
gsave
1 setlinewidth
0.000 0.000 0.000 edgecolor
newpath 1299 101 moveto
1305 92 1317 73 1323 63 curveto
stroke
grestore
% 93
gsave
1 setlinewidth
0.000 0.000 0.000 nodecolor
1359 57 7 7 ellipse_path stroke
grestore
% 14--93
gsave
1 setlinewidth
0.000 0.000 0.000 edgecolor
newpath 1331 101 moveto
1337 92 1349 73 1355 63 curveto
stroke
grestore
% 18
gsave
1 setlinewidth
0.000 0.000 0.000 nodecolor
1391 57 7 7 ellipse_path stroke
grestore
% 14--18
gsave
1 setlinewidth
0.000 0.000 0.000 edgecolor
newpath 1333 102 moveto
1345 93 1373 71 1385 61 curveto
stroke
grestore
% 86
gsave
1 setlinewidth
0.000 0.000 0.000 nodecolor
1103 57 7 7 ellipse_path stroke
grestore
% 82--86
gsave
1 setlinewidth
0.000 0.000 0.000 edgecolor
newpath 1103 100 moveto
1103 90 1103 74 1103 64 curveto
stroke
grestore
% 84
gsave
1 setlinewidth
0.000 0.000 0.000 nodecolor
431 107 7 7 ellipse_path stroke
grestore
% 22--84
gsave
1 setlinewidth
0.000 0.000 0.000 edgecolor
newpath 536 154 moveto
516 145 457 119 437 110 curveto
stroke
grestore
% 71
gsave
1 setlinewidth
0.000 0.000 0.000 nodecolor
463 107 7 7 ellipse_path stroke
grestore
% 22--71
gsave
1 setlinewidth
0.000 0.000 0.000 edgecolor
newpath 537 153 moveto
522 144 484 120 469 111 curveto
stroke
grestore
% 57
gsave
1 setlinewidth
0.000 0.000 0.000 nodecolor
495 107 7 7 ellipse_path stroke
grestore
% 22--57
gsave
1 setlinewidth
0.000 0.000 0.000 edgecolor
newpath 538 152 moveto
528 142 509 122 500 112 curveto
stroke
grestore
% 49
gsave
1 setlinewidth
0.000 0.000 0.000 nodecolor
527 107 7 7 ellipse_path stroke
grestore
% 22--49
gsave
1 setlinewidth
0.000 0.000 0.000 edgecolor
newpath 541 150 moveto
538 140 532 123 529 114 curveto
stroke
grestore
% 46
gsave
1 setlinewidth
0.000 0.000 0.000 nodecolor
559 107 7 7 ellipse_path stroke
grestore
% 22--46
gsave
1 setlinewidth
0.000 0.000 0.000 edgecolor
newpath 545 150 moveto
548 140 554 123 557 114 curveto
stroke
grestore
% 28
gsave
1 setlinewidth
0.000 0.000 0.000 nodecolor
591 107 7 7 ellipse_path stroke
grestore
% 22--28
gsave
1 setlinewidth
0.000 0.000 0.000 edgecolor
newpath 548 152 moveto
558 142 577 122 586 112 curveto
stroke
grestore
% 24
gsave
1 setlinewidth
0.000 0.000 0.000 nodecolor
623 107 7 7 ellipse_path stroke
grestore
% 22--24
gsave
1 setlinewidth
0.000 0.000 0.000 edgecolor
newpath 549 153 moveto
564 144 602 120 617 111 curveto
stroke
grestore
% 73
gsave
1 setlinewidth
0.000 0.000 0.000 nodecolor
575 57 7 7 ellipse_path stroke
grestore
% 28--73
gsave
1 setlinewidth
0.000 0.000 0.000 edgecolor
newpath 589 100 moveto
586 90 580 73 577 64 curveto
stroke
grestore
% 41
gsave
1 setlinewidth
0.000 0.000 0.000 nodecolor
607 57 7 7 ellipse_path stroke
grestore
% 28--41
gsave
1 setlinewidth
0.000 0.000 0.000 edgecolor
newpath 593 100 moveto
596 90 602 73 605 64 curveto
stroke
grestore
% 81
gsave
1 setlinewidth
0.000 0.000 0.000 nodecolor
1295 7 7 7 ellipse_path stroke
grestore
% 32--81
gsave
1 setlinewidth
0.000 0.000 0.000 edgecolor
newpath 1295 50 moveto
1295 40 1295 24 1295 14 curveto
stroke
grestore
% 54
gsave
1 setlinewidth
0.000 0.000 0.000 nodecolor
351 107 7 7 ellipse_path stroke
grestore
% 47--54
gsave
1 setlinewidth
0.000 0.000 0.000 edgecolor
newpath 351 150 moveto
351 140 351 124 351 114 curveto
stroke
grestore
% 79
gsave
1 setlinewidth
0.000 0.000 0.000 nodecolor
655 57 7 7 ellipse_path stroke
grestore
% 76--79
gsave
1 setlinewidth
0.000 0.000 0.000 edgecolor
newpath 655 100 moveto
655 90 655 74 655 64 curveto
stroke
grestore
% 98
gsave
1 setlinewidth
0.000 0.000 0.000 nodecolor
767 57 7 7 ellipse_path stroke
grestore
% 77--98
gsave
1 setlinewidth
0.000 0.000 0.000 edgecolor
newpath 767 100 moveto
767 90 767 74 767 64 curveto
stroke
grestore
endpage
showpage
grestore
%%PageTrailer
%%EndPage: 1
%%Trailer
%%Pages: 1
%%BoundingBox: 36 36 1474 308
end
restore
%%EOF
