\relax 
\@writefile{nav}{\headcommand {\slideentry {1}{1}{1}{2/3}{Overview}{0}}}
\@writefile{nav}{\headcommand {\beamer@framepages {2}{3}}}
\@setckpt{slide_group/group}{
\setcounter{page}{4}
\setcounter{equation}{0}
\setcounter{enumi}{0}
\setcounter{enumii}{0}
\setcounter{enumiii}{0}
\setcounter{enumiv}{0}
\setcounter{footnote}{0}
\setcounter{mpfootnote}{0}
\setcounter{beamerpauses}{1}
\setcounter{pgf@counta}{0}
\setcounter{pgf@countb}{0}
\setcounter{pgf@countc}{0}
\setcounter{pgf@countd}{0}
\setcounter{pgf@tempcount}{0}
\setcounter{lecture}{0}
\setcounter{part}{0}
\setcounter{section}{1}
\setcounter{subsection}{1}
\setcounter{subsubsection}{0}
\setcounter{subsectionslide}{1}
\setcounter{framenumber}{2}
\setcounter{figure}{0}
\setcounter{table}{0}
\setcounter{parentequation}{0}
\setcounter{theorem}{0}
\setcounter{section@level}{0}
}
